                                             MEDICARE                       
                                             MEDICARE PART B, PO BOX 6178            
                                             INDIANAPOLIS IN 46206-6178                                   
                                                                               
                                                                               
 X                                                2654654156                    
                                                                               
 Hussain, Sadham K            04 01 2016  X      Hussain, Sadham K                        
                                                                               
 bjkhj                          X                bjkhj                                       
                                                                               
 hjkhjk                   ME                     hjkhjk                   ME                    
                                                                               
 4561                                            4561                                               
                                                                              
 Hussain, Sadham K                                                                            
                                                                               
 16316516                                X           04 01 2016     X         
                                                                               
                                         X                                     
                                                                               
                                         X                                     
                                                                               
 MAINECARE                                          X                          
                                                                               
                                                                               
      SIGNATURE ON FILE             04172016           SIGNATURE ON FILE       
                                                                               
                                                                               
                                                                               
                                                                               
                                                                               
                                                                               
                                                         X                     
                                          0                                                                            
   001.0        002.0        A00.1                                                                                            
                                                                               
                                                                               
                                                                               
                                                                               
                                                                               
                                                                               
 02 12 16 04 14 16 11     11010   GH          ABC  350   002        1386684868  
                                                                               
                                                                               
                                                                               
                                                                               
                                                                               
                                                                               
                                                                               
                                                                               
                                                                               
                                                                               
 464131042         X   SADHUS0075       X            350    00    0    00 
                                                                               
                       MERIDETH NORRIS D.O. PA     MERIDETH NORRIS D.O. PA
 MERIDETH C NORRIS, DO 58 PORTLAND ROAD SUITE 18   58 PORTLAND ROAD SUITE 18      
              04172016 KENNEBUNK ME 04404043-0000  KENNEBUNK ME 04043-0000          
                                                   1376973651