                                       AETNA, 60054
                                         P.O. Box 981106 
                                         El Paso TX 79998 



                                              X    64532                    
                                                                                 
   Buvaneswaran, Anandharaman   06 29 2018   X     Buvaneswaran, Anandharaman                

   1024                           X                1024                                       

   Norwalk                  CT                     Norwalk                  CT    

   06851                                           06851                         

                                                   

                                          X           06 29 2018     X        

                                          X                                     

                                          X                                     

   



         SIGNATURE ON FILE             07102018           SIGNATURE ON FILE       





                                                           X                     
                                            0                                                                            
    F48.2                                           

                                                                      
                                                     2255885


   07 10 18 07 10 18 12     0359T  11          A        25.00  1      8888888888  

   07 10 18 07 10 18 12     0359T  11          A        25.00  1      8888888888  

                                                          

                                                          

                                                          

                                                          

   812105428        X   ANABUV0003     X                50.00    0.00        
                                                                                 
                         Forming Friendships LLC    Forming Friendships LLC       
   Cassy D               171 Roberts Drive          171 Roberts Drive              
                07102018  Hillsboro MO 63050         Hillsboro MO 63050           
                         1487096012                  1487096012  
  




  