                                       BCBS (ANTHEM) - MO, 00241
                                         P.O. Box 105187 
                                         Atlanta GA 30348 



                                              X    CSQAN7932945                    
                                                                                 
   Bays, Jack                   05 26 2003   X     Bays, Jack                                

   1655 Irish Sea                 X                1655 Irish Sea                             

   High Ridge               MO                     High Ridge               MO    

   63049         (000) 000-0000                    63049         (000) 000-0000  

                                                   

                                          X           05 26 2003     X        

                                          X                                     

                                          X                                     

   



         SIGNATURE ON FILE             07292018           SIGNATURE ON FILE       





                                                           X                     
                                            0                                                                            
    F84.0                                           

                                                                      
                                                     ~


   07 09 18 07 09 18 12     0368T  HO          A        40.46  1      1487096012  

   07 09 18 07 09 18 12     0369T  HO          A       283.22  7      1487096012  

   07 13 18 07 13 18 12     0368T  HO          A        40.46  1      1487096012  

   07 13 18 07 13 18 12     0369T  HO          A       283.22  7      1487096012  

   07 14 18 07 14 18 12     0368T  HO          A        40.46  1      1487096012  

   07 14 18 07 14 18 12     0369T  HO          A       283.22  7      1487096012  

   812105428        X   JACBAY0003     X               971.04    0.00        
                                                                                 
                         Forming Friendships LLC    Forming Friendships LLC       
   Katherine Petefish    171 Roberts Drive          171 Roberts Drive              
                07292018  Hillsboro MO 63050         Hillsboro MO 63050           
                         1487096012                  1487096012  
  




                                         BCBS (ANTHEM) - MO, 00241
                                         P.O. Box 105187 
                                         Atlanta GA 30348 



                                              X    CSQAN7932945                    
                                                                                 
   Bays, Jack                   05 26 2003   X     Bays, Jack                                

   1655 Irish Sea                 X                1655 Irish Sea                             

   High Ridge               MO                     High Ridge               MO    

   63049         (000) 000-0000                    63049         (000) 000-0000  

                                                   

                                          X           05 26 2003     X        

                                          X                                     

                                          X                                     

   



         SIGNATURE ON FILE             07292018           SIGNATURE ON FILE       





                                                           X                     
                                            0                                                                            
    F84.0                                           

                                                                      
                                                     ~


   07 18 18 07 18 18 12     0368T  HO          A        40.46  1      1487096012  

   07 18 18 07 18 18 12     0369T  HO          A       202.30  5      1487096012  

   07 23 18 07 23 18 12     0364T              A        20.00  1      1487096012  

   07 23 18 07 23 18 12     0365T              A       260.00  13     1487096012  

                                                          

                                                          

   812105428        X   JACBAY0003     X               522.76    0.00        
                                                                                 
                         Forming Friendships LLC    Forming Friendships LLC       
   Katherine Petefish    171 Roberts Drive          171 Roberts Drive              
                07292018  Hillsboro MO 63050         Hillsboro MO 63050           
                         1487096012                  1487096012  
  




  