                                       AETNA, 60054
                                         P.O. Box 981106 
                                         El Paso TX 79998 



                                              X    111AuthTest#                    
                                                                                 
   Bird, Larry                  07 01 2008   X     Bird, Larry                               

   13 Irwin Ave                   X                13 Irwin Ave                               

    Freehold                 New Jersey                    Freehold                 New Jersey  

    07728                                           07728                        

                                                   Groupn#Test

                                          X           07 01 2008     X        

                                          X                                     

                                          X                                     

   



         SIGNATURE ON FILE             07112018           SIGNATURE ON FILE       





                                                           X                     
                                            0                                                                            
    F84.0                                           

                                                                      
                                                     AuthTest#


   00 00 00 00 00 00 12     0368T              A        20.00  1        

   00 00 00 00 00 00 12     0369T              A        60.00  3        

   00 00 00 00 00 00 12     0364T              A        20.00  1        

   00 00 00 00 00 00 12     0365T              A        60.00  3        

                                                          

                                                          

   812105428        X   0042           X               160.00    0.00        
                                                                                 
                         Forming Friendships LLC    Forming Friendships LLC       
   Mark JonesBCBA        171 Roberts Drive          171 Roberts Drive              
                07112018  Hillsboro MO 63050         Hillsboro MO 63050           
                         1487096012                  1487096012  
  




  