                                       HEALTH NET, 95567
                                         po box 14702 
                                         lexington KY 40512 



                                              X    57252216                    
                                                                                 
   , Berhane Kaleb              08 31 2002   X     , Berhane Kaleb                           

   500 FOREST PARKWAY             X                500 FOREST PARKWAY                         

   MANCHESTER               MO                     MANCHESTER               MO    

   63021                                           63021                         

                                                   

                                          X           08 31 2002     X        

                                          X                                     

                                          X                                     

   



         SIGNATURE ON FILE             07172018           SIGNATURE ON FILE       





                                                           X                     
                                            0                                                                            
    F84.0                                           

                                                                      
                                                     2018731


   06 09 18 06 09 18 12     0368T  U8 HO       A        48.48  1      1487096012  

   06 09 18 06 09 18 12     0369T  U8 HO       A       339.36  7      1487096012  

   06 11 18 06 11 18 12     0368T  U8 HO       A        48.48  1      1487096012  

   06 11 18 06 11 18 12     0369T  U8 HO       A       339.36  7      1487096012  

                                                          

                                                          

   812105428        X   BERKAL00045    X               775.68    0.00        
                                                                                 
                         Forming Friendships LLC    Forming Friendships LLC       
   Katherine Petefish    171 Roberts Drive          171 Roberts Drive              
                07172018  Hillsboro MO 63050         Hillsboro MO 63050           
                         1487096012                  1487096012  
  




                                         HEALTH NET, 95567
                                         po box 14702 
                                         lexington KY 40512 



                                              X    62972836                    
                                                                                 
   , Burwell Kiley              08 27 2007     X   , Burwell Kiley                           

   1618 Saint Charles Drive       X                1618 Saint Charles Drive                   

   Hillsboro                MO                     Hillsboro                MO    

   63050                                           63050                         

                                                   

                                          X           08 27 2007          X   

                                          X                                     

                                          X                                     

   



         SIGNATURE ON FILE             07172018           SIGNATURE ON FILE       





                                                           X                     
                                            0                                                                            
    F84.0                                           

                                                                      
                                                     20181661


   05 22 18 05 22 18 12     0368T  U8 HO       A        48.48  1      1487096012  

   05 22 18 05 22 18 12     0369T  U8 HO       A       242.40  5      1487096012  

   05 24 18 05 24 18 12     0368T  U8 HO       A        48.48  1      1487096012  

   05 24 18 05 24 18 12     0369T  U8 HO       A       242.40  5      1487096012  

   05 25 18 05 25 18 12     0368T  U8 HO       A        48.48  1      1487096012  

   05 25 18 05 25 18 12     0369T  U8 HO       A       242.40  5      1487096012  

   812105428        X   BURKIL00046    X               872.64    0.00        
                                                                                 
                         Forming Friendships LLC    Forming Friendships LLC       
   Katherine Petefish    171 Roberts Drive          171 Roberts Drive              
                07172018  Hillsboro MO 63050         Hillsboro MO 63050           
                         1487096012                  1487096012  
  




                                         HEALTH NET, 95567
                                         po box 14702 
                                         lexington KY 40512 



                                              X    62972836                    
                                                                                 
   , Burwell Kiley              08 27 2007     X   , Burwell Kiley                           

   1618 Saint Charles Drive       X                1618 Saint Charles Drive                   

   Hillsboro                MO                     Hillsboro                MO    

   63050                                           63050                         

                                                   

                                          X           08 27 2007          X   

                                          X                                     

                                          X                                     

   



         SIGNATURE ON FILE             07172018           SIGNATURE ON FILE       





                                                           X                     
                                            0                                                                            
    F84.0                                           

                                                                      
                                                     20181661


   05 26 18 05 26 18 12     0368T  U8 HO       A        48.48  1      1487096012  

   05 26 18 05 26 18 12     0369T  U8 HO       A       242.40  5      1487096012  

   05 28 18 05 28 18 12     0368T  U8 HO       A        48.48  1      1487096012  

   05 28 18 05 28 18 12     0369T  U8 HO       A       242.40  5      1487096012  

   05 29 18 05 29 18 12     0368T  U8 HO       A        48.48  1      1487096012  

   05 29 18 05 29 18 12     0369T  U8 HO       A       242.40  5      1487096012  

   812105428        X   BURKIL00046    X               872.64    0.00        
                                                                                 
                         Forming Friendships LLC    Forming Friendships LLC       
   Katherine Petefish    171 Roberts Drive          171 Roberts Drive              
                07172018  Hillsboro MO 63050         Hillsboro MO 63050           
                         1487096012                  1487096012  
  




  