                                       HEALTH NET, 95567
                                         po box 14702 
                                         lexington KY 40512 



                                              X    498960083                    
                                                                                 
   , Brusselback Jessica        02 21 2011     X   , Brusselback Jessica                     

   7616 Cheshire Ln               X                7616 Cheshire Ln                           

   Affton                   MO                     Affton                   MO    

   63123                                           63123                         

                                                   

                                          X           02 21 2011          X   

                                          X                                     

                                          X                                     

   



         SIGNATURE ON FILE             07202018           SIGNATURE ON FILE       





                                                           X                     
                                            0                                                                            
    F84.0                                           

                                                                      
                                                     5LPDCW-01


   03 13 18 03 13 18 12     0364T  HO          A       180.00  3      1487096012  

   03 15 18 03 15 18 12     0364T  HO          A       180.00  3      1487096012  

   03 19 18 03 19 18 12     0364T  HO          A       180.00  3      1487096012  

   03 20 18 03 20 18 12     0364T  HO          A       120.00  2      1487096012  

   03 22 18 03 22 18 12     0364T  HO          A       180.00  3      1487096012  

   04 09 18 04 09 18 12     0364T  HO          A       180.00  3      1487096012  

   812105428        X   BRUJES00052    X             1,020.00    0.00        
                                                                                 
                         Forming Friendships LLC    Forming Friendships LLC       
   Katherine Petefish    171 Roberts Drive          171 Roberts Drive              
                07202018  Hillsboro MO 63050         Hillsboro MO 63050           
                         1487096012                  1487096012  
  




                                         HEALTH NET, 95567
                                         po box 14702 
                                         lexington KY 40512 



                                              X    498960083                    
                                                                                 
   , Brusselback Jessica        02 21 2011     X   , Brusselback Jessica                     

   7616 Cheshire Ln               X                7616 Cheshire Ln                           

   Affton                   MO                     Affton                   MO    

   63123                                           63123                         

                                                   

                                          X           02 21 2011          X   

                                          X                                     

                                          X                                     

   



         SIGNATURE ON FILE             07202018           SIGNATURE ON FILE       





                                                           X                     
                                            0                                                                            
    F84.0                                           

                                                                      
                                                     5LPDCW-01


   04 10 18 04 10 18 12     0364T  HO          A       180.00  3      1487096012  

   04 12 18 04 12 18 12     0364T  HO          A       180.00  3      1487096012  

                                                          

                                                          

                                                          

                                                          

   812105428        X   BRUJES00052    X               360.00    0.00        
                                                                                 
                         Forming Friendships LLC    Forming Friendships LLC       
   Katherine Petefish    171 Roberts Drive          171 Roberts Drive              
                07202018  Hillsboro MO 63050         Hillsboro MO 63050           
                         1487096012                  1487096012  
  




                                         HEALTH NET, 95567
                                         po box 14702 
                                         lexington KY 40512 



                                              X    ECN362353878                    
                                                                                 
   , Evans Hunter               04 28 2002   X     , Evans Hunter                            

   1120 Jacob Lane Street         X                1120 Jacob Lane Street                     

   Festus                   MO                     Festus                   MO    

   63028                                           63028                         

                                                   

                                          X           04 28 2002     X        

                                          X                                     

                                          X                                     

   



         SIGNATURE ON FILE             07202018           SIGNATURE ON FILE       





                                                           X                     
                                            0                                                                            
    F84.0                                           

                                                                      
                                                     ~~


   03 01 18 03 01 18 12     0359T              A       120.00  1      1487096012  

   03 02 18 03 02 18 12     0360T              A        42.56  1      1487096012  

   03 02 18 03 02 18 12     0361T              A        42.56  1      1487096012  

   03 07 18 03 07 18 12     0360T              A        42.56  1      1487096012  

   03 07 18 03 07 18 12     0361T              A        42.56  1      1487096012  

   03 09 18 03 09 18 12     0360T              A        42.56  1      1487096012  

   812105428        X   EVAHUN00047    X               332.80    0.00        
                                                                                 
                         Forming Friendships LLC    Forming Friendships LLC       
   Katherine Petefish    171 Roberts Drive          171 Roberts Drive              
                07202018  Hillsboro MO 63050         Hillsboro MO 63050           
                         1487096012                  1487096012  
  




                                         HEALTH NET, 95567
                                         po box 14702 
                                         lexington KY 40512 



                                              X    ECN362353878                    
                                                                                 
   , Evans Hunter               04 28 2002   X     , Evans Hunter                            

   1120 Jacob Lane Street         X                1120 Jacob Lane Street                     

   Festus                   MO                     Festus                   MO    

   63028                                           63028                         

                                                   

                                          X           04 28 2002     X        

                                          X                                     

                                          X                                     

   



         SIGNATURE ON FILE             07202018           SIGNATURE ON FILE       





                                                           X                     
                                            0                                                                            
    F84.0                                           

                                                                      
                                                     ~~


   03 09 18 03 09 18 12     0361T              A        42.56  1      1487096012  

   03 16 18 03 16 18 12     0360T              A        42.56  1      1487096012  

   03 16 18 03 16 18 12     0361T              A        42.56  1      1487096012  

   03 20 18 03 20 18 12     0360T              A        42.56  1      1487096012  

   03 20 18 03 20 18 12     0361T              A        85.12  2      1487096012  

   03 21 18 03 21 18 12     0360T              A        42.56  1      1487096012  

   812105428        X   EVAHUN00047    X               297.92    0.00        
                                                                                 
                         Forming Friendships LLC    Forming Friendships LLC       
   Katherine Petefish    171 Roberts Drive          171 Roberts Drive              
                07202018  Hillsboro MO 63050         Hillsboro MO 63050           
                         1487096012                  1487096012  
  




  