                                       HEALTH NET, 95567
                                         po box 14702 
                                         lexington KY 40512 



                                              X    906738840-01                    
                                                                                 
   , Chacon-Martinez Emiliano   11 17 2010   X     , Chacon-Martinez Emiliano                

   1870 Redwood                   X                1870 Redwood                               

   Arnold                   MO                     Arnold                   MO    

   63010                                           63010                         

                                                   

                                          X           11 17 2010     X        

                                          X                                     

                                          X                                     

   



         SIGNATURE ON FILE             07182018           SIGNATURE ON FILE       





                                                           X                     
                                            0                                                                            
                                                    

                                                                      
                                                     20178283


   04 18 18 04 18 18 12     0369T  U8 HO               242.40  5      1487096012  

   04 20 18 04 20 18 12     0368T  U8 HO                48.48  1      1487096012  

   04 20 18 04 20 18 12     0369T  U8 HO               242.40  5      1487096012  

   04 21 18 04 21 18 12     0368T  U8 HO                48.48  1      1487096012  

   04 21 18 04 21 18 12     0369T  U8 HO               339.36  7      1487096012  

   04 25 18 04 25 18 12     0368T  U8 HO                48.48  1      1487096012  

   812105428        X   CHAEMI00042    X               969.60    0.00        
                                                                                 
                         Forming Friendships LLC    Forming Friendships LLC       
   Katherine Petefish    171 Roberts Drive          171 Roberts Drive              
                07182018  Hillsboro MO 63050         Hillsboro MO 63050           
                         1487096012                  1487096012  
  




                                         HEALTH NET, 95567
                                         po box 14702 
                                         lexington KY 40512 



                                              X    906738840-01                    
                                                                                 
   , Chacon-Martinez Emiliano   11 17 2010   X     , Chacon-Martinez Emiliano                

   1870 Redwood                   X                1870 Redwood                               

   Arnold                   MO                     Arnold                   MO    

   63010                                           63010                         

                                                   

                                          X           11 17 2010     X        

                                          X                                     

                                          X                                     

   



         SIGNATURE ON FILE             07182018           SIGNATURE ON FILE       





                                                           X                     
                                            0                                                                            
                                                    

                                                                      
                                                     20178283


   04 25 18 04 25 18 12     0369T  U8 HO               242.40  5      1487096012  

   04 27 18 04 27 18 12     0368T  U8 HO                48.48  1      1487096012  

   04 27 18 04 27 18 12     0369T  U8 HO               242.40  5      1487096012  

   04 28 18 04 28 18 12     0368T  U8 HO                48.48  1      1487096012  

   04 28 18 04 28 18 12     0369T  U8 HO               339.36  7      1487096012  

   04 30 18 04 30 18 12     0368T  U8 HO                48.48  1      1487096012  

   812105428        X   CHAEMI00042    X               969.60    0.00        
                                                                                 
                         Forming Friendships LLC    Forming Friendships LLC       
   Katherine Petefish    171 Roberts Drive          171 Roberts Drive              
                07182018  Hillsboro MO 63050         Hillsboro MO 63050           
                         1487096012                  1487096012  
  




  