                                       HEALTH NET, 95567
                                         po box 14702 
                                         lexington KY 40512 



                                              X    ECN362353878                    
                                                                                 
   , Evans Hunter               04 28 2002   X     , Evans Hunter                            

   1120 Jacob Lane Street         X                1120 Jacob Lane Street                     

   Festus                   MO                     Festus                   MO    

   63028                                           63028                         

                                                   

                                          X           04 28 2002     X        

                                          X                                     

                                          X                                     

   



         SIGNATURE ON FILE             07202018           SIGNATURE ON FILE       





                                                           X                     
                                            0                                                                            
    F84.0                                           

                                                                      
                                                     ~~


   03 21 18 03 21 18 12     0361T              A        42.56  1      1487096012  

   03 26 18 03 26 18 12     0360T              A        42.56  1      1487096012  

   03 26 18 03 26 18 12     0361T              A       170.24  4      1487096012  

   03 27 18 03 27 18 12     0360T              A        42.56  1      1487096012  

   03 27 18 03 27 18 12     0361T              A       127.68  3      1487096012  

   04 04 18 04 04 18 12     0368T  U8 HO       A        40.46  1      1487096012  

   812105428        X   EVAHUN00047    X               466.06    0.00        
                                                                                 
                         Forming Friendships LLC    Forming Friendships LLC       
   Katherine Petefish    171 Roberts Drive          171 Roberts Drive              
                07202018  Hillsboro MO 63050         Hillsboro MO 63050           
                         1487096012                  1487096012  
  




                                         HEALTH NET, 95567
                                         po box 14702 
                                         lexington KY 40512 



                                              X    ECN362353878                    
                                                                                 
   , Evans Hunter               04 28 2002   X     , Evans Hunter                            

   1120 Jacob Lane Street         X                1120 Jacob Lane Street                     

   Festus                   MO                     Festus                   MO    

   63028                                           63028                         

                                                   

                                          X           04 28 2002     X        

                                          X                                     

                                          X                                     

   



         SIGNATURE ON FILE             07202018           SIGNATURE ON FILE       





                                                           X                     
                                            0                                                                            
    F84.0                                           

                                                                      
                                                     ~~


   04 04 18 04 04 18 12     0369T  U8 HO       A        80.92  2      1487096012  

   04 06 18 04 06 18 12     0368T  U8 HO       A        40.46  1      1487096012  

   04 06 18 04 06 18 12     0369T  U8 HO       A        80.92  2      1487096012  

   04 09 18 04 09 18 12     0368T  U8 HO       A        40.46  1      1487096012  

   04 09 18 04 09 18 12     0369T  U8 HO       A       202.30  5      1487096012  

   04 11 18 04 11 18 12     0368T  U8 HO       A        40.46  1      1487096012  

   812105428        X   EVAHUN00047    X               485.52    0.00        
                                                                                 
                         Forming Friendships LLC    Forming Friendships LLC       
   Katherine Petefish    171 Roberts Drive          171 Roberts Drive              
                07202018  Hillsboro MO 63050         Hillsboro MO 63050           
                         1487096012                  1487096012  
  




  