                                       HEALTH NET, 95567
                                         po box 14702 
                                         lexington KY 40512 



                                              X    64789039                    
                                                                                 
   , Coffman Cooper             08 10 2014   X     , Coffman Cooper                          

   3414 Henry Drive               X                3414 Henry Drive                           

   Imperial                 MO                     Imperial                 MO    

   63052                                           63052                         

                                                   

                                          X           08 10 2014     X        

                                          X                                     

                                          X                                     

   



         SIGNATURE ON FILE             07212018           SIGNATURE ON FILE       





                                                           X                     
                                            0                                                                            
    F84.0                                           

                                                                      
                                                     20183599


   07 12 18 07 12 18 11     0360T  U8 HO       A        41.56  1      1487096012  

   07 12 18 07 12 18 11     0361T  U8 HO       A       124.68  3      1487096012  

   07 26 18 07 26 18 11     0360T  U8 HO       A        41.56  1      1487096012  

   07 26 18 07 26 18 11     0361T  U8 HO       A         0.00  0      1487096012  

                                                          

                                                          

   812105428        X   COFCOO00053    X               207.80    0.00        
                                                                                 
                         Forming Friendships LLC    Forming Friendships LLC       
   Katherine Petefish    171 Roberts Drive          171 Roberts Drive              
                07212018  Hillsboro MO 63050         Hillsboro MO 63050           
                         1487096012                  1487096012  
  




  