                                       HEALTH NET, 95567
                                         po box 14702 
                                         lexington KY 40512 



                                              X    56154452                    
                                                                                 
   Browne, Peter B              10 07 1990   X     Browne, Peter B                           

   1024                           X                1024                                       

   Norwalk                  CT                     Norwalk                  CT    

   06851         (521) 356-2315                    06851         (521) 356-2315  

                                                   452

                                          X           10 07 1990     X        

                                          X                                     

                                          X                                     

   



         SIGNATURE ON FILE             07222018           SIGNATURE ON FILE       





                                                           X                     
                                            0                                                                            
    F84.0                                           

                                                                      
                                                     55588875


   07 03 18 07 03 18 12     0360T  U8          A        48.48  1      1487096012  

   07 03 18 07 03 18 12     0360T  U8          A        48.48  1      1487096012  

   07 03 18 07 03 18 12     0361T  U8          A       193.92  4      1487096012  

   07 03 18 07 03 18 12     0361T  U8          A       193.92  4      1487096012  

   07 18 18 07 18 18 12     0360T  U8          A        48.48  1      1487096012  

   07 18 18 07 18 18 12     0360T  U8          A        48.48  1      1487096012  

   812105428        X   PETBRO0057     X               581.76    0.00        
                                                                                 
                         Forming Friendships LLC    Forming Friendships LLC       
   Katherine Petefish    171 Roberts Drive          171 Roberts Drive              
                07222018  Hillsboro MO 63050         Hillsboro MO 63050           
                         1487096012                  1487096012  
  




                                         HEALTH NET, 95567
                                         po box 14702 
                                         lexington KY 40512 



                                              X    56154452                    
                                                                                 
   Browne, Peter B              10 07 1990   X     Browne, Peter B                           

   1024                           X                1024                                       

   Norwalk                  CT                     Norwalk                  CT    

   06851         (521) 356-2315                    06851         (521) 356-2315  

                                                   452

                                          X           10 07 1990     X        

                                          X                                     

                                          X                                     

   



         SIGNATURE ON FILE             07222018           SIGNATURE ON FILE       





                                                           X                     
                                            0                                                                            
    F84.0                                           

                                                                      
                                                     55588875


   07 18 18 07 18 18 12     0361T  U8          A       169.68  4      1487096012  

   07 18 18 07 18 18 12     0361T  U8          A       169.68  4      1487096012  

                                                          

                                                          

                                                          

                                                          

   812105428        X   PETBRO0057     X               339.36    0.00        
                                                                                 
                         Forming Friendships LLC    Forming Friendships LLC       
   Katherine Petefish    171 Roberts Drive          171 Roberts Drive              
                07222018  Hillsboro MO 63050         Hillsboro MO 63050           
                         1487096012                  1487096012  
  




  