                                       ANTHEM BLUE CROSS, BC001
                                         PO BOX 60007 
                                         LOS ANGELES CA 90060 



                                              X    44854588                    
                                                                                 
   Raman, Ananth                11 28 1990   X     Raman, Ananth                             

   1024                           X                1024                                       

   Norwalk                  CT                     Norwalk                  CT    

   06851         (851) 233-5646                    06851         (851) 233-5646  

                                                   

                                          X           11 28 1990     X        

                                          X                                     

                                          X                                     

   



         SIGNATURE ON FILE             07272018           SIGNATURE ON FILE       





                                                           X                     
                                            0                                                                            
    F48.2                                           

                                                                      
                                                     4744474


   07 03 18 07 03 18 12     0359T  U8          A        20.00  1      1487096012  

   07 04 18 07 04 18 12     0359T  U8          A        20.00  1      1487096012  

   07 05 18 07 05 18 12     0359T  U8          A        20.00  1      1487096012  

   07 06 18 07 06 18 12     0359T  U8          A        20.00  1      1487096012  

                                                          

                                                          

   812105428        X   ANARAM0061     X                80.00    0.00        
                                                                                 
                         Forming Friendships LLC    Forming Friendships LLC       
   Katherine Petefish    171 Roberts Drive          171 Roberts Drive              
                07272018  Hillsboro MO 63050         Hillsboro MO 63050           
                         1487096012                  1487096012  
  




  