"BOWYER, JULIE",AARP - UNITED HEALTCARE CLAIM ,47,SPT,29-03-17,36.24,275,14-09-44
"BOWYER, JULIE",AARP - UNITED HEALTCARE CLAIM ,45,SPT,31-03-17,20.04,165,14-09-44
"BOWYER, JULIE",AARP - UNITED HEALTCARE CLAIM ,40,SPT,05-04-17,20.04,165,14-09-44
"GUITE, LINDA",AARP - UNITED HEALTCARE CLAIM ,38,SPT,07-04-17,19.23,150,16-12-31
"GUITE, LINDA",AARP - UNITED HEALTCARE CLAIM ,35,SPT,10-04-17,19.23,150,16-12-31
"BOWYER, JULIE",AARP - UNITED HEALTCARE CLAIM ,33,SPT,12-04-17,20.04,165,14-09-44
"GUITE, LINDA",AARP - UNITED HEALTCARE CLAIM ,33,SPT,12-04-17,19.23,150,16-12-31
"GUITE, LINDA",AARP - UNITED HEALTCARE CLAIM ,28,SPT,17-04-17,19.23,150,16-12-31
"BOWYER, JULIE",AARP - UNITED HEALTCARE CLAIM ,26,SPT,19-04-17,20.04,165,14-09-44
"GUITE, LINDA",AARP - UNITED HEALTCARE CLAIM ,26,SPT,19-04-17,19.23,150,16-12-31
"GUITE, LINDA",AARP - UNITED HEALTCARE CLAIM ,24,SPT,21-04-17,19.23,150,16-12-31
"GUITE, LINDA",AARP - UNITED HEALTCARE CLAIM ,24,SPT,21-04-17,19.23,150,16-12-31
"MARTINEZ, WILLIAM",AARP HEALTH CARE OPTIONS,112,SPT,23-01-17,10.35,295,30-04-44
"SMITH, DARYL",AARP HEALTH CARE OPTIONS,104,SPT,31-01-17,10.35,225,28-02-39
"MARTINEZ, WILLIAM",AARP HEALTH CARE OPTIONS,60,SPT,16-03-17,30.39,250,30-04-44
"MARTINEZ, WILLIAM",AARP HEALTH CARE OPTIONS,48,SPT,28-03-17,25.45,210,30-04-44
"LARSON, JOANN MARIE",AARP HEALTH CARE OPTIONS,45,SPT,31-03-17,20.04,165,15-01-37
"LARSON, JOANN MARIE",AARP HEALTH CARE OPTIONS,40,SPT,05-04-17,20.04,165,15-01-37
"LARSON, JOANN MARIE",AARP HEALTH CARE OPTIONS,40,SPT,05-04-17,20.04,165,15-01-37
"WARREN, ROBERT",ADMIN SURE,28,SPT,17-04-17,150,150,29-11-66
"WARREN, ROBERT",ADMIN SURE,26,SPT,19-04-17,150,150,29-11-66
"WARREN, ROBERT",ADMIN SURE,21,SPT,24-04-17,150,150,29-11-66
"WARREN, ROBERT",ADMIN SURE,19,SPT,26-04-17,235,235,29-11-66
"WARREN, ROBERT",ADMIN SURE,17,SPT,28-04-17,140,140,29-11-66
"WARREN, ROBERT",ADMIN SURE,14,SPT,01-05-17,150,150,29-11-66
"WARREN, ROBERT",ADMIN SURE,12,SPT,03-05-17,150,150,29-11-66
"WARREN, ROBERT",ADMIN SURE,10,SPT,05-05-17,150,150,29-11-66
"WARREN, ROBERT",ADMIN SURE,7,SPT,08-05-17,150,150,29-11-66
"WARREN, ROBERT",ADMIN SURE,7,SPT,08-05-17,150,150,29-11-66
"BOLLINGER, MITCHELL",AETNA,4,SPT,11-05-17,175,175,27-09-99
"BOLLINGER, MITCHELL",AETNA,4,SPT,11-05-17,175,175,27-09-99
"GILSON, LESLIE J",AETNA,234,SPT,23-09-16,210,210,03-03-46
"GILSON, LESLIE J",AETNA,229,SPT,28-09-16,210,210,03-03-46
"GILSON, LESLIE J",AETNA,200,SPT,27-10-16,210,210,03-03-46
"GILSON, LESLIE J",AETNA,192,SPT,04-11-16,210,210,03-03-46
"PESKO, URS",AETNA,19,SPT,26-04-17,200,200,05-06-50
"WANG, EDWARD",AETNA,19,SPT,26-04-17,200,200,04-11-79
"BURKE, KOLBY",AETNA,19,SPT,26-04-17,115,145,23-10-02
"PESKO, URS",AETNA,18,SPT,27-04-17,285,285,05-06-50
"BURKE, KOLBY",AETNA,17,SPT,28-04-17,115,145,23-10-02
"PESKO, URS",AETNA,14,SPT,01-05-17,200,200,05-06-50
"BURKE, KOLBY",AETNA,14,SPT,01-05-17,65,95,23-10-02
"PESKO, URS",AETNA,12,SPT,03-05-17,200,200,05-06-50
"BURKE, KOLBY",AETNA,12,SPT,03-05-17,115,145,23-10-02
"WANG, EDWARD",AETNA,10,SPT,05-05-17,200,200,04-11-79
"PESKO, URS",AETNA,7,SPT,08-05-17,200,200,05-06-50
"BURKE, KOLBY",AETNA,7,SPT,08-05-17,115,145,23-10-02
"PESKO, URS",AETNA,5,SPT,10-05-17,200,200,05-06-50
"BURKE, KOLBY",AETNA,5,SPT,10-05-17,115,145,23-10-02
"BURKE, KOLBY",AETNA,5,SPT,10-05-17,115,145,23-10-02
"LOVETT, MARY",AETNA   *,14,SPT,01-05-17,210,210,14-10-46
"LOVETT, MARY",AETNA   *,6,SPT,09-05-17,200,200,14-10-46
"LOVETT, MARY",AETNA   *,6,SPT,09-05-17,200,200,14-10-46
"HIMES-USHIJIMA, MARNELL",AETNA- PTPN,108,SPT,27-01-17,20.44,175,25-01-44
"HIMES-USHIJIMA, MARNELL",AETNA- PTPN,75,SPT,01-03-17,29.78,250,25-01-44
"BOLLINGER, OLIVIA",AETNA- PTPN,47,SPT,29-03-17,200,200,01-03-02
"BOLLINGER, OLIVIA",AETNA- PTPN,45,SPT,31-03-17,195,195,01-03-02
"BOLLINGER, OLIVIA",AETNA- PTPN,41,SPT,04-04-17,195,195,01-03-02
"WARNER, MARK",AETNA- PTPN,19,SPT,26-04-17,145,145,18-07-68
"WARNER, MARK",AETNA- PTPN,14,SPT,01-05-17,145,145,18-07-68
"WARNER, MARK",AETNA- PTPN,12,SPT,03-05-17,190,190,18-07-68
"MARTIN, NATALIE",AETNA- PTPN,12,SPT,03-05-17,195,195,21-04-92
"POORE, JAMES",AETNA- PTPN,10,SPT,05-05-17,160,200,24-07-73
"MARTIN, NATALIE",AETNA- PTPN,7,SPT,08-05-17,130,130,21-04-92
"BOLLINGER, OLIVIA",AETNA- PTPN,6,SPT,09-05-17,195,195,01-03-02
"MARTIN, NATALIE",AETNA- PTPN,5,SPT,10-05-17,180,180,21-04-92
"MARTIN, NATALIE",AETNA- PTPN,5,SPT,10-05-17,180,180,21-04-92
"SCHOCH, BRADLEY",ALL SAVERS,165,SPT,01-12-16,255,255,05-03-86
"SCHOCH, BRADLEY",ALL SAVERS,165,SPT,01-12-16,255,255,05-03-86
"TANDON, SMITA",BLUE CROSS     *              ,329,SPT,20-06-16,192,192,07-12-59
"TANDON, SMITA",BLUE CROSS     *              ,327,SPT,22-06-16,192,192,07-12-59
"TANDON, SMITA",BLUE CROSS     *              ,322,SPT,27-06-16,192,192,07-12-59
"TANDON, SMITA",BLUE CROSS     *              ,320,SPT,29-06-16,186,186,07-12-59
"TANDON, SMITA",BLUE CROSS     *              ,318,SPT,01-07-16,186,186,07-12-59
"TANDON, SMITA",BLUE CROSS     *              ,313,SPT,06-07-16,186,186,07-12-59
"TANDON, SMITA",BLUE CROSS     *              ,311,SPT,08-07-16,186,186,07-12-59
"TANDON, SMITA",BLUE CROSS     *              ,306,SPT,13-07-16,180,180,07-12-59
"CORDEIRO, RAFAEL",BLUE CROSS     *              ,234,SPT,23-09-16,110,110,01-06-73
"CORDEIRO, RAFAEL",BLUE CROSS     *              ,231,SPT,26-09-16,185,185,01-06-73
"HATTABAUGH, SUSAN",BLUE CROSS     *              ,224,SPT,03-10-16,167.51,175,01-06-64
"BELSITO, JOE",BLUE CROSS     *              ,166,SPT,30-11-16,50,285,27-12-65
"BELSITO, JOE",BLUE CROSS     *              ,161,SPT,05-12-16,50,175,27-12-65
"BELSITO, JOE",BLUE CROSS     *              ,159,SPT,07-12-16,50,175,27-12-65
"BELSITO, JOE",BLUE CROSS     *              ,154,SPT,12-12-16,50,175,27-12-65
"BELSITO, JOE",BLUE CROSS     *              ,152,SPT,14-12-16,50,175,27-12-65
"BELSITO, JOE",BLUE CROSS     *              ,150,SPT,16-12-16,50,175,27-12-65
"BELSITO, JOE",BLUE CROSS     *              ,147,SPT,19-12-16,50,175,27-12-65
"BELSITO, JOE",BLUE CROSS     *              ,145,SPT,21-12-16,50,175,27-12-65
"LEE, ETHAN",BLUE CROSS     *              ,118,SPT,17-01-17,280,280,12-09-01
"HAYES, BETH",BLUE CROSS     *              ,116,SPT,19-01-17,71.92,215,01-04-63
"HAYES, BETH",BLUE CROSS     *              ,110,SPT,25-01-17,140,140,01-04-63
"LEE, ETHAN",BLUE CROSS     *              ,101,SPT,03-02-17,185,185,12-09-01
"LEE, ETHAN",BLUE CROSS     *              ,84,SPT,20-02-17,170,170,12-09-01
"LEE, ETHAN",BLUE CROSS     *              ,81,SPT,23-02-17,170,170,12-09-01
"WARBRICK, CECIL",BLUE CROSS     *              ,74,SPT,02-03-17,175,175,17-06-53
"SCHROEDER, JAMES J",BLUE CROSS     *              ,68,SPT,08-03-17,19.65,165,08-03-50
"KEEFE, SILVIA",BLUE CROSS     *              ,66,SPT,10-03-17,32.87,270,03-11-48
"SCHROEDER, JAMES J",BLUE CROSS     *              ,59,SPT,17-03-17,29.78,250,08-03-50
"KUROKI, RITSUKO",BLUE CROSS     *              ,59,SPT,17-03-17,20.52,175,31-03-47
"KUROKI, RITSUKO",BLUE CROSS     *              ,56,SPT,20-03-17,20.52,175,31-03-47
"WARBRICK, CECIL",BLUE CROSS     *              ,54,SPT,22-03-17,140,140,17-06-53
"BATES, PATTI",BLUE CROSS     *              ,32,SPT,13-04-17,18.68,150,11-10-28
"KUROKI, RITSUKO",BLUE CROSS     *              ,32,SPT,13-04-17,18.68,150,31-03-47
"DAY, JOHN R, SR",BLUE CROSS     *              ,32,SPT,13-04-17,17.78,140,12-10-51
"KUROKI, RITSUKO",BLUE CROSS     *              ,28,SPT,17-04-17,18.3,150,31-03-47
"BATES, PATTI",BLUE CROSS     *              ,27,SPT,18-04-17,18.3,150,11-10-28
"STAFFORD, KYLE",BLUE CROSS     *              ,27,SPT,18-04-17,140,140,19-02-84
"DAY, JOHN R, SR",BLUE CROSS     *              ,26,SPT,19-04-17,17.78,140,12-10-51
"BATES, PATTI",BLUE CROSS     *              ,25,SPT,20-04-17,18.3,150,11-10-28
"STAFFORD, KYLE",BLUE CROSS     *              ,25,SPT,20-04-17,140,140,19-02-84
"DAY, JOHN R, SR",BLUE CROSS     *              ,25,SPT,20-04-17,17.78,140,12-10-51
"BEUSEE, GERALD",BLUE CROSS     *              ,24,SPT,21-04-17,35.52,275,16-09-39
"KUROKI, RITSUKO",BLUE CROSS     *              ,24,SPT,21-04-17,18.3,150,31-03-47
"DAY, JOHN R, SR",BLUE CROSS     *              ,24,SPT,21-04-17,17.78,140,12-10-51
"BATES, PATTI",BLUE CROSS     *              ,20,SPT,25-04-17,18.68,150,11-10-28
"STAFFORD, KYLE",BLUE CROSS     *              ,20,SPT,25-04-17,140,140,19-02-84
"LEWIS, JAMES",BLUE CROSS     *              ,19,SPT,26-04-17,165,165,26-06-60
"THOMPSON, COLE",BLUE CROSS     *              ,19,SPT,26-04-17,140,140,30-09-93
"FEURTEY, PATRICK",BLUE CROSS     *              ,19,SPT,26-04-17,140,140,24-11-47
"LEWIS, JEREMIAH",BLUE CROSS     *              ,19,SPT,26-04-17,220,220,28-10-97
"STAFFORD, KYLE",BLUE CROSS     *              ,18,SPT,27-04-17,140,140,19-02-84
"HANSON, NATE",BLUE CROSS     *              ,18,SPT,27-04-17,115,140,14-11-74
"HARVEY, PETER",BLUE CROSS     *              ,17,SPT,28-04-17,190,190,17-07-59
"KREITZ, DONALD JAY",BLUE CROSS     *              ,14,SPT,01-05-17,250,250,19-03-53
"LEWIS, JAMES",BLUE CROSS     *              ,14,SPT,01-05-17,175,175,26-06-60
"THOMPSON, COLE",BLUE CROSS     *              ,14,SPT,01-05-17,140,140,30-09-93
"SKALE, DAVID",BLUE CROSS     *              ,14,SPT,01-05-17,175,175,15-01-66
"RABAN, BARBI",BLUE CROSS     *              ,14,SPT,01-05-17,140,140,10-03-63
"FEURTEY, PATRICK",BLUE CROSS     *              ,14,SPT,01-05-17,140,140,24-11-47
"KELLY, PETER",BLUE CROSS     *              ,14,SPT,01-05-17,175,175,22-04-71
"RILEY, LOUIS",BLUE CROSS     *              ,14,SPT,01-05-17,175,175,02-02-33
"PASKIN, STEVE",BLUE CROSS     *              ,14,SPT,01-05-17,140,140,18-10-58
"TRAN, VE",BLUE CROSS     *              ,14,SPT,01-05-17,175,175,01-09-61
"HARVEY, PETER",BLUE CROSS     *              ,14,SPT,01-05-17,190,190,17-07-59
"WILLIAMS, DAVID",BLUE CROSS     *              ,14,SPT,01-05-17,235,260,10-11-62
"NORMAN, LORI",BLUE CROSS     *              ,13,SPT,02-05-17,140,140,07-10-59
"HANSON, NATE",BLUE CROSS     *              ,13,SPT,02-05-17,115,140,14-11-74
"KREITZ, DONALD JAY",BLUE CROSS     *              ,12,SPT,03-05-17,140,140,19-03-53
"LEWIS, JAMES",BLUE CROSS     *              ,12,SPT,03-05-17,175,175,26-06-60
"THOMPSON, COLE",BLUE CROSS     *              ,12,SPT,03-05-17,140,140,30-09-93
"SKALE, DAVID",BLUE CROSS     *              ,12,SPT,03-05-17,175,175,15-01-66
"RABAN, BARBI",BLUE CROSS     *              ,12,SPT,03-05-17,140,140,10-03-63
"FEURTEY, PATRICK",BLUE CROSS     *              ,12,SPT,03-05-17,140,140,24-11-47
"NORMAN, LORI",BLUE CROSS     *              ,12,SPT,03-05-17,140,140,07-10-59
"WARBRICK, CECIL",BLUE CROSS     *              ,12,SPT,03-05-17,140,140,17-06-53
"KELLY, PETER",BLUE CROSS     *              ,12,SPT,03-05-17,175,175,22-04-71
"TRAN, VE",BLUE CROSS     *              ,12,SPT,03-05-17,175,175,01-09-61
"BURR, DANIEL",BLUE CROSS     *              ,11,SPT,04-05-17,140,140,23-05-61
"WILLIAMS, DAVID",BLUE CROSS     *              ,11,SPT,04-05-17,125,150,10-11-62
"KREITZ, DONALD JAY",BLUE CROSS     *              ,10,SPT,05-05-17,140,140,19-03-53
"RABAN, BARBI",BLUE CROSS     *              ,10,SPT,05-05-17,140,140,10-03-63
"BICOS, OLGA",BLUE CROSS     *              ,10,SPT,05-05-17,150,150,17-06-60
"BULAICH, CYNTHIA",BLUE CROSS     *              ,10,SPT,05-05-17,190,190,23-05-57
"LEWIS, JEREMIAH",BLUE CROSS     *              ,10,SPT,05-05-17,190,190,28-10-97
"NORMAN, LORI",BLUE CROSS     *              ,10,SPT,05-05-17,140,140,07-10-59
"RILEY, LOUIS",BLUE CROSS     *              ,10,SPT,05-05-17,260,260,02-02-33
"HARVEY, PETER",BLUE CROSS     *              ,10,SPT,05-05-17,190,190,17-07-59
"WILLIAMS, DAVID",BLUE CROSS     *              ,10,SPT,05-05-17,150,150,10-11-62
"KREITZ, DONALD JAY",BLUE CROSS     *              ,7,SPT,08-05-17,140,140,19-03-53
"THOMPSON, COLE",BLUE CROSS     *              ,7,SPT,08-05-17,140,140,30-09-93
"SKALE, DAVID",BLUE CROSS     *              ,7,SPT,08-05-17,175,175,15-01-66
"BULAICH, CYNTHIA",BLUE CROSS     *              ,7,SPT,08-05-17,190,190,23-05-57
"PRECIADO, RUBEN",BLUE CROSS     *              ,7,SPT,08-05-17,175,175,03-05-72
"NORMAN, LORI",BLUE CROSS     *              ,7,SPT,08-05-17,175,175,07-10-59
"HUNTER, SARAH",BLUE CROSS     *              ,7,SPT,08-05-17,145,175,30-08-52
"PASKIN, STEVE",BLUE CROSS     *              ,7,SPT,08-05-17,140,140,18-10-58
"SINGLETON, JACOB",BLUE CROSS     *              ,7,SPT,08-05-17,125,125,03-07-73
"TRAN, VE",BLUE CROSS     *              ,7,SPT,08-05-17,175,175,01-09-61
"HARVEY, PETER",BLUE CROSS     *              ,7,SPT,08-05-17,190,190,17-07-59
"WILLIAMS, DAVID",BLUE CROSS     *              ,7,SPT,08-05-17,150,150,10-11-62
"MINICK, HEATHER",BLUE CROSS     *              ,7,SPT,08-05-17,165,205,14-06-77
"BICOS, OLGA",BLUE CROSS     *              ,6,SPT,09-05-17,150,150,17-06-60
"FEURTEY, PATRICK",BLUE CROSS     *              ,6,SPT,09-05-17,140,140,24-11-47
"NORMAN, LORI",BLUE CROSS     *              ,6,SPT,09-05-17,140,140,07-10-59
"KELLY, PETER",BLUE CROSS     *              ,6,SPT,09-05-17,175,175,22-04-71
"RILEY, LOUIS",BLUE CROSS     *              ,6,SPT,09-05-17,175,175,02-02-33
"BURR, DANIEL",BLUE CROSS     *              ,6,SPT,09-05-17,140,140,23-05-61
"HANSON, NATE",BLUE CROSS     *              ,6,SPT,09-05-17,115,140,14-11-74
"THEOPHILUS, DAVID",BLUE CROSS     *              ,6,SPT,09-05-17,250,250,28-07-57
"KREITZ, DONALD JAY",BLUE CROSS     *              ,5,SPT,10-05-17,140,140,19-03-53
"SKALE, DAVID",BLUE CROSS     *              ,5,SPT,10-05-17,175,175,15-01-66
"BULAICH, CYNTHIA",BLUE CROSS     *              ,5,SPT,10-05-17,140,140,23-05-57
"WARBRICK, CECIL",BLUE CROSS     *              ,5,SPT,10-05-17,140,140,17-06-53
"KELLY, PETER",BLUE CROSS     *              ,5,SPT,10-05-17,175,175,22-04-71
"HUNTER, SARAH",BLUE CROSS     *              ,5,SPT,10-05-17,175,175,30-08-52
"SINGLETON, JACOB",BLUE CROSS     *              ,5,SPT,10-05-17,125,125,03-07-73
"HARVEY, PETER",BLUE CROSS     *              ,5,SPT,10-05-17,190,190,17-07-59
"MINICK, HEATHER",BLUE CROSS     *              ,5,SPT,10-05-17,190,190,14-06-77
"PRECIADO, RUBEN",BLUE CROSS     *              ,4,SPT,11-05-17,175,175,03-05-72
"WILLIAMS, DAVID",BLUE CROSS     *              ,4,SPT,11-05-17,150,150,10-11-62
"THEOPHILUS, DAVID",BLUE CROSS     *              ,4,SPT,11-05-17,140,140,28-07-57
"THEOPHILUS, DAVID",BLUE CROSS     *              ,4,SPT,11-05-17,140,140,28-07-57
"TAYLOR, VICTORIA",BLUE SHIELD,26,SPT,19-04-17,20.04,165,14-11-44
"TAYLOR, VICTORIA",BLUE SHIELD,24,SPT,21-04-17,20.04,165,14-11-44
"CUNNEEN, CARMINE",BLUE SHIELD,11,SPT,04-05-17,140,150,14-07-66
"CUNNEEN, CARMINE",BLUE SHIELD,6,SPT,09-05-17,140,150,14-07-66
"CUNNEEN, CARMINE",BLUE SHIELD,4,SPT,11-05-17,150,150,14-07-66
"CUNNEEN, CARMINE",BLUE SHIELD,4,SPT,11-05-17,150,150,14-07-66
"BOTTS, ERIC",BLUE SHIELD     *,405,SPT,05-04-16,197,197,14-02-66
"DOLAN, CANDACE",BLUE SHIELD     *,334,SPT,15-06-16,199.88,240,07-02-57
"DOLAN, CANDACE",BLUE SHIELD     *,332,SPT,17-06-16,204.09,245,07-02-57
"DOLAN, CANDACE",BLUE SHIELD     *,329,SPT,20-06-16,204.09,245,07-02-57
"DOLAN, CANDACE",BLUE SHIELD     *,327,SPT,22-06-16,204.09,245,07-02-57
"DOLAN, CANDACE",BLUE SHIELD     *,325,SPT,24-06-16,204.09,245,07-02-57
"DOLAN, CANDACE",BLUE SHIELD     *,322,SPT,27-06-16,204.09,245,07-02-57
"DOLAN, CANDACE",BLUE SHIELD     *,320,SPT,29-06-16,204.09,245,07-02-57
"DOLAN, CANDACE",BLUE SHIELD     *,318,SPT,01-07-16,204.09,245,07-02-57
"DOLAN, CANDACE",BLUE SHIELD     *,314,SPT,05-07-16,204.09,245,07-02-57
"DOLAN, CANDACE",BLUE SHIELD     *,312,SPT,07-07-16,204.09,245,07-02-57
"DOLAN, CANDACE",BLUE SHIELD     *,308,SPT,11-07-16,204.09,245,07-02-57
"DOLAN, CANDACE",BLUE SHIELD     *,301,SPT,18-07-16,204.09,245,07-02-57
"FRIES, DONNA",BLUE SHIELD     *,202,SPT,25-10-16,256.18,310,10-07-75
"FRIES, DONNA",BLUE SHIELD     *,199,SPT,28-10-16,191.18,245,10-07-75
"OBERLY, MICHELE ",BLUE SHIELD     *,153,SPT,13-12-16,34.11,275,24-08-47
"OBERLY, MICHELE ",BLUE SHIELD     *,151,SPT,15-12-16,19.94,165,24-08-47
"OBERLY, MICHELE ",BLUE SHIELD     *,147,SPT,19-12-16,19.94,165,24-08-47
"OBERLY, MICHELE ",BLUE SHIELD     *,144,SPT,22-12-16,19.53,165,24-08-47
"OBERLY, MICHELE ",BLUE SHIELD     *,138,SPT,28-12-16,19.94,165,24-08-47
"OBERLY, MICHELE ",BLUE SHIELD     *,130,SPT,05-01-17,87.85,165,24-08-47
"OBERLY, MICHELE ",BLUE SHIELD     *,125,SPT,10-01-17,20.04,165,24-08-47
"OBERLY, MICHELE ",BLUE SHIELD     *,118,SPT,17-01-17,20.04,165,24-08-47
"OBERLY, MICHELE ",BLUE SHIELD     *,111,SPT,24-01-17,29.78,250,24-08-47
"OBERLY, MICHELE ",BLUE SHIELD     *,104,SPT,31-01-17,20.04,165,24-08-47
"OBERLY, MICHELE ",BLUE SHIELD     *,97,SPT,07-02-17,20.04,165,24-08-47
"CHAVIRA, JOLENE C",BLUE SHIELD     *,45,SPT,31-03-17,28.13,225,23-07-46
"RAMIREZ, ANNA E",BLUE SHIELD     *,42,SPT,03-04-17,19.65,165,29-04-61
"CHAVIRA, JOLENE C",BLUE SHIELD     *,41,SPT,04-04-17,20.04,165,23-07-46
"RAMIREZ, ANNA E",BLUE SHIELD     *,38,SPT,07-04-17,20.04,165,29-04-61
"CHAVIRA, JOLENE C",BLUE SHIELD     *,38,SPT,07-04-17,20.04,165,23-07-46
"KISHI, PATRICIA",BLUE SHIELD     *,27,SPT,18-04-17,20.04,165,18-06-47
"CHAVIRA, JOLENE C",BLUE SHIELD     *,27,SPT,18-04-17,20.04,165,23-07-46
"CHAVIRA, JOLENE C",BLUE SHIELD     *,26,SPT,19-04-17,20.04,165,23-07-46
"DUCHARM, PATRICIA",BLUE SHIELD     *,26,SPT,19-04-17,20.04,165,07-08-44
"SKOLYAN, MARY ROSE",BLUE SHIELD     *,26,SPT,19-04-17,12.37,95,22-07-42
"KISHI, PATRICIA",BLUE SHIELD     *,25,SPT,20-04-17,20.04,165,18-06-47
"DUCHARM, PATRICIA",BLUE SHIELD     *,25,SPT,20-04-17,20.04,165,07-08-44
"YEE, ARTHUR",BLUE SHIELD     *,25,SPT,20-04-17,18.3,150,08-05-42
"KIRKWOOD, MICHAEL",BLUE SHIELD     *,24,SPT,21-04-17,35.52,275,21-07-46
"SKOLYAN, MARY ROSE",BLUE SHIELD     *,24,SPT,21-04-17,12.37,95,22-07-42
"CHAVIRA, JOLENE C",BLUE SHIELD     *,20,SPT,25-04-17,30.39,250,23-07-46
"BEVINGTON, STACY ",BLUE SHIELD     *,19,SPT,26-04-17,175,175,17-10-69
"BOTTS, CHERI",BLUE SHIELD     *,19,SPT,26-04-17,145,145,02-11-66
"BEVINGTON, STACY ",BLUE SHIELD     *,17,SPT,28-04-17,175,175,17-10-69
"BOTTS, CHERI",BLUE SHIELD     *,17,SPT,28-04-17,195,195,02-11-66
"BEVINGTON, STACY ",BLUE SHIELD     *,14,SPT,01-05-17,260,260,17-10-69
"BOTTS, CHERI",BLUE SHIELD     *,14,SPT,01-05-17,195,195,02-11-66
"BEVINGTON, STACY ",BLUE SHIELD     *,12,SPT,03-05-17,175,175,17-10-69
"POOLE, JANINE",BLUE SHIELD     *,12,SPT,03-05-17,200,200,19-07-59
"BOTTS, CHERI",BLUE SHIELD     *,12,SPT,03-05-17,195,195,02-11-66
"PIRTLE, CYNTHIA",BLUE SHIELD     *,12,SPT,03-05-17,165,195,01-07-64
"CRAIG, CHESTINA",BLUE SHIELD     *,12,SPT,03-05-17,200,200,03-08-94
"NGUYEN, TANDY",BLUE SHIELD     *,12,SPT,03-05-17,190,190,01-05-71
"BOGER, JAMES ANTHONY",BLUE SHIELD     *,10,SPT,05-05-17,245,245,27-01-59
"RIVERA, MARY",BLUE SHIELD     *,10,SPT,05-05-17,145,145,10-12-37
"BOTTS, CHERI",BLUE SHIELD     *,10,SPT,05-05-17,195,195,02-11-66
"NGUYEN, TANDY",BLUE SHIELD     *,10,SPT,05-05-17,140,140,01-05-71
"CAICO, JOSEPH",BLUE SHIELD     *,7,SPT,08-05-17,190,190,16-07-72
"BEVINGTON, STACY ",BLUE SHIELD     *,7,SPT,08-05-17,175,175,17-10-69
"BOGER, JAMES ANTHONY",BLUE SHIELD     *,7,SPT,08-05-17,245,245,27-01-59
"BOTTS, CHERI",BLUE SHIELD     *,7,SPT,08-05-17,195,195,02-11-66
"KRUGER, ALECIA",BLUE SHIELD     *,7,SPT,08-05-17,220,250,26-04-63
"PIRTLE, CYNTHIA",BLUE SHIELD     *,7,SPT,08-05-17,165,195,01-07-64
"NGUYEN, TANDY",BLUE SHIELD     *,7,SPT,08-05-17,190,190,01-05-71
"DUFEK, JOHN",BLUE SHIELD     *,7,SPT,08-05-17,110,145,18-10-63
"URIBE, JAVIER",BLUE SHIELD     *,7,SPT,08-05-17,355,355,13-04-61
"NGUYEN, SANDY",BLUE SHIELD     *,7,SPT,08-05-17,340,355,20-09-54
"BOGER, JAMES ANTHONY",BLUE SHIELD     *,6,SPT,09-05-17,245,245,27-01-59
"LUDIN, JOSHUA",BLUE SHIELD     *,6,SPT,09-05-17,240,275,28-03-89
"CAICO, JOSEPH",BLUE SHIELD     *,5,SPT,10-05-17,190,190,16-07-72
"BEVINGTON, STACY ",BLUE SHIELD     *,5,SPT,10-05-17,175,175,17-10-69
"POOLE, JANINE",BLUE SHIELD     *,5,SPT,10-05-17,200,200,19-07-59
"PIRTLE, CYNTHIA",BLUE SHIELD     *,5,SPT,10-05-17,165,195,01-07-64
"CRAIG, CHESTINA",BLUE SHIELD     *,5,SPT,10-05-17,200,200,03-08-94
"URIBE, JAVIER",BLUE SHIELD     *,5,SPT,10-05-17,245,245,13-04-61
"BOGER, JAMES ANTHONY",BLUE SHIELD     *,4,SPT,11-05-17,245,245,27-01-59
"KRUGER, ALECIA",BLUE SHIELD     *,4,SPT,11-05-17,170,200,26-04-63
"NGUYEN, SANDY",BLUE SHIELD     *,4,SPT,11-05-17,230,245,20-09-54
"NGUYEN, SANDY",BLUE SHIELD     *,4,SPT,11-05-17,230,245,20-09-54
"TOUMANIAN, ISABELLE",BLUE SHIELD (FEP),25,SPT,20-04-17,220,245,09-10-59
"WEIR, SHELLEY",BLUE SHIELD (FEP),24,SPT,21-04-17,175,200,25-09-55
"WEIR, SHELLEY",BLUE SHIELD (FEP),12,SPT,03-05-17,150,175,25-09-55
"TOUMANIAN, ISABELLE",BLUE SHIELD (FEP),11,SPT,04-05-17,245,245,09-10-59
"WEIR, SHELLEY",BLUE SHIELD (FEP),10,SPT,05-05-17,150,175,25-09-55
"WEIR, SHELLEY",BLUE SHIELD (FEP),7,SPT,08-05-17,235,260,25-09-55
"RUPERT, MICHAEL",BLUE SHIELD (FEP),7,SPT,08-05-17,175,205,22-11-78
"TOUMANIAN, ISABELLE",BLUE SHIELD (FEP),6,SPT,09-05-17,245,245,09-10-59
"WEIR, SHELLEY",BLUE SHIELD (FEP),5,SPT,10-05-17,170,195,25-09-55
"DI IULLO, JEREMY",BLUE SHIELD (FEP),5,SPT,10-05-17,215,245,18-08-83
"RUPERT, MICHAEL",BLUE SHIELD (FEP),5,SPT,10-05-17,160,190,22-11-78
"TOUMANIAN, ISABELLE",BLUE SHIELD (FEP),4,SPT,11-05-17,245,245,09-10-59
"TOUMANIAN, ISABELLE",BLUE SHIELD (FEP),4,SPT,11-05-17,245,245,09-10-59
"LOCKARD, SIBILLE",BLUE SHIELD OF CA,18,SPT,27-04-17,200,200,08-02-48
"LOCKARD, SIBILLE",BLUE SHIELD OF CA,13,SPT,02-05-17,200,200,08-02-48
"LOCKARD, SIBILLE",BLUE SHIELD OF CA,11,SPT,04-05-17,190,190,08-02-48
"LOCKARD, SIBILLE",BLUE SHIELD OF CA,4,SPT,11-05-17,200,200,08-02-48
"LOCKARD, SIBILLE",BLUE SHIELD OF CA,4,SPT,11-05-17,200,200,08-02-48
"CLARK, PETER M",CIGNA       GROUP,47,SPT,29-03-17,17.8,135,02-06-33
"CLARK, PETER M",CIGNA       GROUP,32,SPT,13-04-17,18.16,135,02-06-33
"CLARK, PETER M",CIGNA       GROUP,28,SPT,17-04-17,17.8,135,02-06-33
"CLARK, PETER M",CIGNA       GROUP,25,SPT,20-04-17,17.8,135,02-06-33
"CLARK, PETER M",CIGNA       GROUP,25,SPT,20-04-17,17.8,135,02-06-33
"BORREGO, PETE",CORVEL CORPORATION,13,SPT,02-05-17,260,260,01-12-71
"BORREGO, PETE",CORVEL CORPORATION,11,SPT,04-05-17,150,150,01-12-71
"BORREGO, PETE",CORVEL CORPORATION,6,SPT,09-05-17,150,150,01-12-71
"BORREGO, PETE",CORVEL CORPORATION,6,SPT,09-05-17,150,150,01-12-71
"HARAGA, MARGARET",HARTFORD ,27,SPT,18-04-17,260,260,16-05-62
"HARAGA, MARGARET",HARTFORD ,25,SPT,20-04-17,150,150,16-05-62
"HARAGA, MARGARET",HARTFORD ,21,SPT,24-04-17,140,140,16-05-62
"HARAGA, MARGARET",HARTFORD ,18,SPT,27-04-17,150,150,16-05-62
"HARAGA, MARGARET",HARTFORD ,13,SPT,02-05-17,150,150,16-05-62
"HARAGA, MARGARET",HARTFORD ,11,SPT,04-05-17,150,150,16-05-62
"HARAGA, MARGARET",HARTFORD ,6,SPT,09-05-17,150,150,16-05-62
"HARAGA, MARGARET",HARTFORD ,4,SPT,11-05-17,150,150,16-05-62
"HARAGA, MARGARET",HARTFORD ,4,SPT,11-05-17,150,150,16-05-62
"ENGESSER, JANET",HEALTHNET,110,SPT,25-01-17,9.97,300,02-01-48
"ENGESSER, JANET",HEALTHNET,63,SPT,13-03-17,29.78,250,02-01-48
"ENGESSER, JANET",HEALTHNET,49,SPT,27-03-17,17.43,140,02-01-48
"ENGESSER, JANET",HEALTHNET,47,SPT,29-03-17,19.65,165,02-01-48
"ENGESSER, JANET",HEALTHNET,38,SPT,07-04-17,19.65,165,02-01-48
"ENGESSER, JANET",HEALTHNET,35,SPT,10-04-17,19.65,165,02-01-48
"ENGESSER, JANET",HEALTHNET,28,SPT,17-04-17,19.65,165,02-01-48
"ENGESSER, JANET",HEALTHNET,28,SPT,17-04-17,19.65,165,02-01-48
"CONLON, THOMAS",NORIDIAN MEDICARE,47,SPT,29-03-17,225,225,07-11-44
"RAMIREZ, ANNA E",NORIDIAN MEDICARE,38,SPT,07-04-17,20.04,165,29-04-61
"DEVLIN, EDWARD",NORIDIAN MEDICARE,35,SPT,10-04-17,165,165,05-01-27
"RAMIREZ, ANNA E",NORIDIAN MEDICARE,35,SPT,10-04-17,325,325,29-04-61
"DEVLIN, EDWARD",NORIDIAN MEDICARE,33,SPT,12-04-17,250,250,05-01-27
"RAMIREZ, ANNA E",NORIDIAN MEDICARE,32,SPT,13-04-17,175,175,29-04-61
"STEWART, DELIA",NORIDIAN MEDICARE,26,SPT,19-04-17,225,225,12-08-35
"RAMIREZ, ANNA E",NORIDIAN MEDICARE,24,SPT,21-04-17,150,150,29-04-61
"OBERLY, DONALD",NORIDIAN MEDICARE,24,SPT,21-04-17,170,170,15-01-44
"CLARK, PETER M",NORIDIAN MEDICARE,21,SPT,24-04-17,135,135,02-06-33
"BEUSEE, GERALD",NORIDIAN MEDICARE,21,SPT,24-04-17,165,165,16-09-39
"GUITE, LINDA",NORIDIAN MEDICARE,21,SPT,24-04-17,235,235,16-12-31
"RAO, VINODA",NORIDIAN MEDICARE,21,SPT,24-04-17,175,175,27-11-38
"LOENHORST, SHERRY",NORIDIAN MEDICARE,21,SPT,24-04-17,165,165,04-06-44
"KUROKI, RITSUKO",NORIDIAN MEDICARE,21,SPT,24-04-17,150,150,31-03-47
"RAMIREZ, ANNA E",NORIDIAN MEDICARE,21,SPT,24-04-17,175,175,29-04-61
"KIRKWOOD, MICHAEL",NORIDIAN MEDICARE,21,SPT,24-04-17,165,165,21-07-46
"ENGESSER, JANET",NORIDIAN MEDICARE,21,SPT,24-04-17,165,165,02-01-48
"LIEBERMANN, STEPHEN",NORIDIAN MEDICARE,21,SPT,24-04-17,140,140,26-11-51
"SKOLYAN, MARY ROSE",NORIDIAN MEDICARE,21,SPT,24-04-17,95,95,22-07-42
"YEE, ARTHUR",NORIDIAN MEDICARE,21,SPT,24-04-17,150,150,08-05-42
"OBERLY, DONALD",NORIDIAN MEDICARE,21,SPT,24-04-17,140,140,15-01-44
"SHEARER, RICHARD",NORIDIAN MEDICARE,21,SPT,24-04-17,145,145,20-06-47
"MILLS JR, JAMES H.",NORIDIAN MEDICARE,20,SPT,25-04-17,250,250,17-10-32
"BEUSEE, GERALD",NORIDIAN MEDICARE,19,SPT,26-04-17,165,165,16-09-39
"KISHI, PATRICIA",NORIDIAN MEDICARE,19,SPT,26-04-17,165,165,18-06-47
"KEITH, MICHAEL",NORIDIAN MEDICARE,19,SPT,26-04-17,165,165,29-10-66
"LUONG, LINDA",NORIDIAN MEDICARE,19,SPT,26-04-17,275,275,15-04-47
"DAY, JOHN R, SR",NORIDIAN MEDICARE,19,SPT,26-04-17,140,140,12-10-51
"LIEBERMANN, STEPHEN",NORIDIAN MEDICARE,19,SPT,26-04-17,140,140,26-11-51
"SANCHEZ, EDWARD B",NORIDIAN MEDICARE,19,SPT,26-04-17,165,165,21-10-66
"SKOLYAN, MARY ROSE",NORIDIAN MEDICARE,19,SPT,26-04-17,95,95,22-07-42
"SHEARER, RICHARD",NORIDIAN MEDICARE,19,SPT,26-04-17,165,165,20-06-47
"BATES, DAVID L",NORIDIAN MEDICARE,19,SPT,26-04-17,325,325,01-01-49
"DALEY, LUELLA J",NORIDIAN MEDICARE,19,SPT,26-04-17,145,145,13-08-34
"CLARK, PETER M",NORIDIAN MEDICARE,18,SPT,27-04-17,135,135,02-06-33
"RAO, VINODA",NORIDIAN MEDICARE,18,SPT,27-04-17,175,175,27-11-38
"KUROKI, RITSUKO",NORIDIAN MEDICARE,18,SPT,27-04-17,150,150,31-03-47
"KIRKWOOD, MICHAEL",NORIDIAN MEDICARE,18,SPT,27-04-17,165,165,21-07-46
"YEE, ARTHUR",NORIDIAN MEDICARE,18,SPT,27-04-17,150,150,08-05-42
"BATES, DAVID L",NORIDIAN MEDICARE,18,SPT,27-04-17,175,175,01-01-49
"BOWYER, JULIE",NORIDIAN MEDICARE,17,SPT,28-04-17,165,165,14-09-44
"STIEVE, DAVIS P",NORIDIAN MEDICARE,17,SPT,28-04-17,165,165,06-12-46
"LOENHORST, SHERRY",NORIDIAN MEDICARE,17,SPT,28-04-17,165,165,04-06-44
"DAY, JOHN R, SR",NORIDIAN MEDICARE,17,SPT,28-04-17,140,140,12-10-51
"LIEBERMANN, STEPHEN",NORIDIAN MEDICARE,17,SPT,28-04-17,140,140,26-11-51
"SANCHEZ, EDWARD B",NORIDIAN MEDICARE,17,SPT,28-04-17,165,165,21-10-66
"OBERLY, DONALD",NORIDIAN MEDICARE,17,SPT,28-04-17,140,140,15-01-44
"VANCAMP, JOSEPHINE S",NORIDIAN MEDICARE,14,SPT,01-05-17,170,170,20-07-46
"BEUSEE, GERALD",NORIDIAN MEDICARE,14,SPT,01-05-17,165,165,16-09-39
"RAO, VINODA",NORIDIAN MEDICARE,14,SPT,01-05-17,175,175,27-11-38
"LOENHORST, SHERRY",NORIDIAN MEDICARE,14,SPT,01-05-17,165,165,04-06-44
"KISHI, PATRICIA",NORIDIAN MEDICARE,14,SPT,01-05-17,165,165,18-06-47
"RAMIREZ, ANNA E",NORIDIAN MEDICARE,14,SPT,01-05-17,175,175,29-04-61
"LUONG, LINDA",NORIDIAN MEDICARE,14,SPT,01-05-17,165,165,15-04-47
"SANCHEZ, EDWARD B",NORIDIAN MEDICARE,14,SPT,01-05-17,165,165,21-10-66
"SKOLYAN, MARY ROSE",NORIDIAN MEDICARE,14,SPT,01-05-17,140,140,22-07-42
"YEE, ARTHUR",NORIDIAN MEDICARE,14,SPT,01-05-17,140,140,08-05-42
"SHEARER, RICHARD",NORIDIAN MEDICARE,14,SPT,01-05-17,165,165,20-06-47
"BATES, DAVID L",NORIDIAN MEDICARE,14,SPT,01-05-17,175,175,01-01-49
"DALEY, LUELLA J",NORIDIAN MEDICARE,14,SPT,01-05-17,120,120,13-08-34
"CLARK, PETER M",NORIDIAN MEDICARE,13,SPT,02-05-17,135,135,02-06-33
"TOMSICK, CONSTANCE C",NORIDIAN MEDICARE,13,SPT,02-05-17,245,245,31-07-48
"MILLS JR, JAMES H.",NORIDIAN MEDICARE,13,SPT,02-05-17,140,140,17-10-32
"BOWYER, JULIE",NORIDIAN MEDICARE,12,SPT,03-05-17,165,165,14-09-44
"LOENHORST, SHERRY",NORIDIAN MEDICARE,12,SPT,03-05-17,165,165,04-06-44
"KEITH, MICHAEL",NORIDIAN MEDICARE,12,SPT,03-05-17,175,175,29-10-66
"LUONG, LINDA",NORIDIAN MEDICARE,12,SPT,03-05-17,165,165,15-04-47
"DAY, JOHN R, SR",NORIDIAN MEDICARE,12,SPT,03-05-17,140,140,12-10-51
"SKOLYAN, MARY ROSE",NORIDIAN MEDICARE,12,SPT,03-05-17,140,140,22-07-42
"OBERLY, DONALD",NORIDIAN MEDICARE,12,SPT,03-05-17,140,140,15-01-44
"DALEY, LUELLA J",NORIDIAN MEDICARE,12,SPT,03-05-17,165,165,13-08-34
"CLARK, PETER M",NORIDIAN MEDICARE,11,SPT,04-05-17,135,135,02-06-33
"BATES, PATTI",NORIDIAN MEDICARE,11,SPT,04-05-17,150,150,11-10-28
"RAO, VINODA",NORIDIAN MEDICARE,11,SPT,04-05-17,175,175,27-11-38
"MILLS JR, JAMES H.",NORIDIAN MEDICARE,11,SPT,04-05-17,140,140,17-10-32
"LUONG, LINDA",NORIDIAN MEDICARE,11,SPT,04-05-17,165,165,15-04-47
"KIRKWOOD, MICHAEL",NORIDIAN MEDICARE,11,SPT,04-05-17,165,165,21-07-46
"DUCHARM, PATRICIA",NORIDIAN MEDICARE,11,SPT,04-05-17,165,165,07-08-44
"YEE, ARTHUR",NORIDIAN MEDICARE,11,SPT,04-05-17,150,150,08-05-42
"BOWYER, JULIE",NORIDIAN MEDICARE,10,SPT,05-05-17,165,165,14-09-44
"BEUSEE, GERALD",NORIDIAN MEDICARE,10,SPT,05-05-17,165,165,16-09-39
"RAMIREZ, ANNA E",NORIDIAN MEDICARE,10,SPT,05-05-17,175,175,29-04-61
"DAY, JOHN R, SR",NORIDIAN MEDICARE,10,SPT,05-05-17,165,165,12-10-51
"SANCHEZ, EDWARD B",NORIDIAN MEDICARE,10,SPT,05-05-17,165,165,21-10-66
"SKOLYAN, MARY ROSE",NORIDIAN MEDICARE,10,SPT,05-05-17,140,140,22-07-42
"SHEARER, RICHARD",NORIDIAN MEDICARE,10,SPT,05-05-17,165,165,20-06-47
"BATES, DAVID L",NORIDIAN MEDICARE,10,SPT,05-05-17,175,175,01-01-49
"RAO, VINODA",NORIDIAN MEDICARE,7,SPT,08-05-17,175,175,27-11-38
"LOENHORST, SHERRY",NORIDIAN MEDICARE,7,SPT,08-05-17,250,250,04-06-44
"LUONG, LINDA",NORIDIAN MEDICARE,7,SPT,08-05-17,165,165,15-04-47
"SKOLYAN, MARY ROSE",NORIDIAN MEDICARE,7,SPT,08-05-17,140,140,22-07-42
"YEE, ARTHUR",NORIDIAN MEDICARE,7,SPT,08-05-17,175,175,08-05-42
"OBERLY, DONALD",NORIDIAN MEDICARE,7,SPT,08-05-17,140,140,15-01-44
"SHEARER, RICHARD",NORIDIAN MEDICARE,7,SPT,08-05-17,165,165,20-06-47
"DALEY, LUELLA J",NORIDIAN MEDICARE,7,SPT,08-05-17,165,165,13-08-34
"CLARK, PETER M",NORIDIAN MEDICARE,6,SPT,09-05-17,135,135,02-06-33
"MILLS JR, JAMES H.",NORIDIAN MEDICARE,6,SPT,09-05-17,140,140,17-10-32
"BOWYER, JULIE",NORIDIAN MEDICARE,5,SPT,10-05-17,165,165,14-09-44
"BEUSEE, GERALD",NORIDIAN MEDICARE,5,SPT,10-05-17,165,165,16-09-39
"KISHI, PATRICIA",NORIDIAN MEDICARE,5,SPT,10-05-17,165,165,18-06-47
"KEITH, MICHAEL",NORIDIAN MEDICARE,5,SPT,10-05-17,165,165,29-10-66
"BOSLER, EUSTELLE J",NORIDIAN MEDICARE,5,SPT,10-05-17,250,250,30-04-41
"DAY, JOHN R, SR",NORIDIAN MEDICARE,5,SPT,10-05-17,165,165,12-10-51
"SANCHEZ, EDWARD B",NORIDIAN MEDICARE,5,SPT,10-05-17,165,165,21-10-66
"SKOLYAN, MARY ROSE",NORIDIAN MEDICARE,5,SPT,10-05-17,140,140,22-07-42
"OBERLY, DONALD",NORIDIAN MEDICARE,5,SPT,10-05-17,140,140,15-01-44
"SHEARER, RICHARD",NORIDIAN MEDICARE,5,SPT,10-05-17,165,165,20-06-47
"DALEY, LUELLA J",NORIDIAN MEDICARE,5,SPT,10-05-17,165,165,13-08-34
"CLARK, PETER M",NORIDIAN MEDICARE,4,SPT,11-05-17,135,135,02-06-33
"TOMSICK, CONSTANCE C",NORIDIAN MEDICARE,4,SPT,11-05-17,140,140,31-07-48
"LAMBERT, HOUSTON",NORIDIAN MEDICARE,4,SPT,11-05-17,285,285,02-04-27
"RAO, VINODA",NORIDIAN MEDICARE,4,SPT,11-05-17,175,175,27-11-38
"MILLS JR, JAMES H.",NORIDIAN MEDICARE,4,SPT,11-05-17,140,140,17-10-32
"LUONG, LINDA",NORIDIAN MEDICARE,4,SPT,11-05-17,165,165,15-04-47
"KIRKWOOD, MICHAEL",NORIDIAN MEDICARE,4,SPT,11-05-17,165,165,21-07-46
"YEE, ARTHUR",NORIDIAN MEDICARE,4,SPT,11-05-17,150,150,08-05-42
"YEE, ARTHUR",NORIDIAN MEDICARE,4,SPT,11-05-17,150,150,08-05-42
"GIBSON, LESLIE",RAILROAD MEDICARE (PALMETTO),280,SPT,08-08-16,275,275,15-01-27
"GIBSON, LESLIE",RAILROAD MEDICARE (PALMETTO),276,SPT,12-08-16,165,165,15-01-27
"GIBSON, LESLIE",RAILROAD MEDICARE (PALMETTO),273,SPT,15-08-16,165,165,15-01-27
"GIBSON, LESLIE",RAILROAD MEDICARE (PALMETTO),271,SPT,17-08-16,165,165,15-01-27
"GIBSON, LESLIE",RAILROAD MEDICARE (PALMETTO),266,SPT,22-08-16,165,165,15-01-27
"GIBSON, LESLIE",RAILROAD MEDICARE (PALMETTO),262,SPT,26-08-16,210,210,15-01-27
"GIBSON, LESLIE",RAILROAD MEDICARE (PALMETTO),259,SPT,29-08-16,210,210,15-01-27
"GIBSON, LESLIE",RAILROAD MEDICARE (PALMETTO),257,SPT,31-08-16,210,210,15-01-27
"GIBSON, LESLIE",RAILROAD MEDICARE (PALMETTO),250,SPT,07-09-16,210,210,15-01-27
"GIBSON, LESLIE",RAILROAD MEDICARE (PALMETTO),248,SPT,09-09-16,270,270,15-01-27
"GIBSON, LESLIE",RAILROAD MEDICARE (PALMETTO),245,SPT,12-09-16,245,245,15-01-27
"GIBSON, LESLIE",RAILROAD MEDICARE (PALMETTO),243,SPT,14-09-16,210,210,15-01-27
"GIBSON, LESLIE",RAILROAD MEDICARE (PALMETTO),238,SPT,19-09-16,210,210,15-01-27
"GIBSON, LESLIE",RAILROAD MEDICARE (PALMETTO),234,SPT,23-09-16,210,210,15-01-27
"GIBSON, LESLIE",RAILROAD MEDICARE (PALMETTO),231,SPT,26-09-16,210,210,15-01-27
"GIBSON, LESLIE",RAILROAD MEDICARE (PALMETTO),229,SPT,28-09-16,210,210,15-01-27
"GIBSON, LESLIE",RAILROAD MEDICARE (PALMETTO),217,SPT,10-10-16,210,210,15-01-27
"GIBSON, LESLIE",RAILROAD MEDICARE (PALMETTO),206,SPT,21-10-16,275,275,15-01-27
"GIBSON, LESLIE",RAILROAD MEDICARE (PALMETTO),206,SPT,21-10-16,275,275,15-01-27
"ESTRADA, DANIELLE",SHASTA,42,SPT,03-04-17,300,300,11-10-79
"ESTRADA, DANIELLE",SHASTA,42,SPT,03-04-17,300,300,11-10-79
"FINSTON, PHILIP",SO CAL LUMBAR FUND,20,SPT,25-04-17,215,215,31-05-49
"FINSTON, PHILIP",SO CAL LUMBAR FUND,18,SPT,27-04-17,140,140,31-05-49
"FINSTON, PHILIP",SO CAL LUMBAR FUND,12,SPT,03-05-17,140,140,31-05-49
"FINSTON, PHILIP",SO CAL LUMBAR FUND,11,SPT,04-05-17,140,140,31-05-49
"FINSTON, PHILIP",SO CAL LUMBAR FUND,7,SPT,08-05-17,140,140,31-05-49
"FINSTON, PHILIP",SO CAL LUMBAR FUND,6,SPT,09-05-17,140,140,31-05-49
"FINSTON, PHILIP",SO CAL LUMBAR FUND,4,SPT,11-05-17,140,140,31-05-49
"FINSTON, PHILIP",SO CAL LUMBAR FUND,4,SPT,11-05-17,140,140,31-05-49
"GALVEZ SALGADO, TERESA",SPNET,341,SPT,08-06-16,190,190,14-07-86
"GALVEZ SALGADO, TERESA",SPNET,339,SPT,10-06-16,190,190,14-07-86
"GALVEZ SALGADO, TERESA",SPNET,336,SPT,13-06-16,190,190,14-07-86
"GALVEZ SALGADO, TERESA",SPNET,336,SPT,13-06-16,190,190,14-07-86
"ATWOOD, MARIA DOLORES",STATE FARM ,95,SPT,09-02-17,140,140,03-11-63
"ATWOOD, MARIA DOLORES",STATE FARM ,94,SPT,10-02-17,140,140,03-11-63
"ATWOOD, MARIA DOLORES",STATE FARM ,26,SPT,19-04-17,150,150,03-11-63
"ATWOOD, MARIA DOLORES",STATE FARM ,25,SPT,20-04-17,150,150,03-11-63
"ATWOOD, MARIA DOLORES",STATE FARM ,24,SPT,21-04-17,150,150,03-11-63
"ATWOOD, MARIA DOLORES",STATE FARM ,21,SPT,24-04-17,150,150,03-11-63
"ATWOOD, MARIA DOLORES",STATE FARM ,19,SPT,26-04-17,150,150,03-11-63
"ATWOOD, MARIA DOLORES",STATE FARM ,14,SPT,01-05-17,150,150,03-11-63
"ATWOOD, MARIA DOLORES",STATE FARM ,12,SPT,03-05-17,150,150,03-11-63
"ATWOOD, MARIA DOLORES",STATE FARM ,10,SPT,05-05-17,150,150,03-11-63
"ATWOOD, MARIA DOLORES",STATE FARM ,6,SPT,09-05-17,150,150,03-11-63
"ATWOOD, MARIA DOLORES",STATE FARM ,6,SPT,09-05-17,150,150,03-11-63
"ACOSTA-HATHAWAY, ORQUIDIA",TRICARE WEST REGION,101,SPT,03-02-17,20.52,175,23-11-50
"ACOSTA-HATHAWAY, ORQUIDIA",TRICARE WEST REGION,98,SPT,06-02-17,20.52,175,23-11-50
"ACOSTA-HATHAWAY, ORQUIDIA",TRICARE WEST REGION,52,SPT,24-03-17,30.28,260,23-11-50
"KUNZ, RICHARD E",TRICARE WEST REGION,34,SPT,11-04-17,17.78,140,09-09-34
"KUNZ, RICHARD E",TRICARE WEST REGION,34,SPT,11-04-17,17.78,140,09-09-34
"LIEBERMANN, STEPHEN",UNITED AMERICAN INSURANCE COMP,49,SPT,27-03-17,28.57,205,26-11-51
"LIEBERMANN, STEPHEN",UNITED AMERICAN INSURANCE COMP,47,SPT,29-03-17,17.78,140,26-11-51
"LIEBERMANN, STEPHEN",UNITED AMERICAN INSURANCE COMP,42,SPT,03-04-17,17.78,140,26-11-51
"LIEBERMANN, STEPHEN",UNITED AMERICAN INSURANCE COMP,40,SPT,05-04-17,17.78,140,26-11-51
"LIEBERMANN, STEPHEN",UNITED AMERICAN INSURANCE COMP,38,SPT,07-04-17,17.78,140,26-11-51
"LIEBERMANN, STEPHEN",UNITED AMERICAN INSURANCE COMP,35,SPT,10-04-17,17.78,140,26-11-51
"LIEBERMANN, STEPHEN",UNITED AMERICAN INSURANCE COMP,33,SPT,12-04-17,17.78,140,26-11-51
"LIEBERMANN, STEPHEN",UNITED AMERICAN INSURANCE COMP,28,SPT,17-04-17,17.78,140,26-11-51
"LIEBERMANN, STEPHEN",UNITED AMERICAN INSURANCE COMP,26,SPT,19-04-17,17.78,140,26-11-51
"LIEBERMANN, STEPHEN",UNITED AMERICAN INSURANCE COMP,24,SPT,21-04-17,23.1,175,26-11-51
"LIEBERMANN, STEPHEN",UNITED AMERICAN INSURANCE COMP,24,SPT,21-04-17,23.1,175,26-11-51
"LANEY, DAVID",UNITED HEALTHCARE,20,SPT,25-04-17,140,140,17-11-42
"LANEY, DAVID",UNITED HEALTHCARE,18,SPT,27-04-17,135,135,17-11-42
"LANEY, DAVID",UNITED HEALTHCARE,13,SPT,02-05-17,135,135,17-11-42
"LANEY, DAVID",UNITED HEALTHCARE,11,SPT,04-05-17,135,135,17-11-42
"LANEY, DAVID",UNITED HEALTHCARE,6,SPT,09-05-17,140,140,17-11-42
"LANEY, DAVID",UNITED HEALTHCARE,6,SPT,09-05-17,140,140,17-11-42
"ROREM, BONNIE",UNITED HEALTHCARE-PTPN,38,SPT,07-04-17,-50,140,28-12-90
"ROREM, BONNIE",UNITED HEALTHCARE-PTPN,35,SPT,10-04-17,-50,140,28-12-90
"ROREM, BONNIE",UNITED HEALTHCARE-PTPN,33,SPT,12-04-17,-50,140,28-12-90
"MIRAMONTEZ, MARIA",UNITED HEALTHCARE-PTPN,27,SPT,18-04-17,140,140,09-10-62
"MIRAMONTEZ, MARIA",UNITED HEALTHCARE-PTPN,25,SPT,20-04-17,140,140,09-10-62
"MIRAMONTEZ, MARIA",UNITED HEALTHCARE-PTPN,20,SPT,25-04-17,140,140,09-10-62
"ROREM, BONNIE",UNITED HEALTHCARE-PTPN,19,SPT,26-04-17,90,140,28-12-90
"ROREM, BONNIE",UNITED HEALTHCARE-PTPN,14,SPT,01-05-17,230,280,28-12-90
"MIRAMONTEZ, MARIA",UNITED HEALTHCARE-PTPN,13,SPT,02-05-17,140,140,09-10-62
"MIRAMONTEZ, MARIA",UNITED HEALTHCARE-PTPN,6,SPT,09-05-17,140,140,09-10-62
"MIRAMONTEZ, MARIA",UNITED HEALTHCARE-PTPN,6,SPT,09-05-17,140,140,09-10-62
"PAUL, KELLY",UNITED HEALTHCARE-PTPN,47,SPT,29-03-17,90,90,12-10-55
"REES, TIMOTHY",UNITED HEALTHCARE-PTPN,46,SPT,30-03-17,175,175,08-09-69
"REES, TIMOTHY",UNITED HEALTHCARE-PTPN,27,SPT,18-04-17,175,175,08-09-69
"MOORE, JOE III",UNITED HEALTHCARE-PTPN,25,SPT,20-04-17,230,230,25-03-64
"PAUL, KELLY",UNITED HEALTHCARE-PTPN,21,SPT,24-04-17,90,90,12-10-55
"REES, TIMOTHY",UNITED HEALTHCARE-PTPN,20,SPT,25-04-17,175,175,08-09-69
"PAUL, KELLY",UNITED HEALTHCARE-PTPN,19,SPT,26-04-17,140,140,12-10-55
"MOORE, JOE III",UNITED HEALTHCARE-PTPN,18,SPT,27-04-17,145,145,25-03-64
"REES, TIMOTHY",UNITED HEALTHCARE-PTPN,18,SPT,27-04-17,175,175,08-09-69
"PAUL, KELLY",UNITED HEALTHCARE-PTPN,14,SPT,01-05-17,140,140,12-10-55
"PAUL, KELLY",UNITED HEALTHCARE-PTPN,12,SPT,03-05-17,225,225,12-10-55
"MOORE, JOE III",UNITED HEALTHCARE-PTPN,11,SPT,04-05-17,145,145,25-03-64
"PAUL, KELLY",UNITED HEALTHCARE-PTPN,7,SPT,08-05-17,140,140,12-10-55
"PAUL, KELLY",UNITED HEALTHCARE-PTPN,5,SPT,10-05-17,140,140,12-10-55
"MOORE, JOE III",UNITED HEALTHCARE-PTPN,4,SPT,11-05-17,145,145,25-03-64
"MOORE, JOE III",UNITED HEALTHCARE-PTPN,4,SPT,11-05-17,145,145,25-03-64
"STIEVE, DAVIS P",USAA LIFE INSURANCE COMPANY,47,SPT,29-03-17,36.24,275,06-12-46
"STIEVE, DAVIS P",USAA LIFE INSURANCE COMPANY,45,SPT,31-03-17,20.04,165,06-12-46
"STIEVE, DAVIS P",USAA LIFE INSURANCE COMPANY,42,SPT,03-04-17,19.65,165,06-12-46
"STIEVE, DAVIS P",USAA LIFE INSURANCE COMPANY,40,SPT,05-04-17,20.04,165,06-12-46
"STIEVE, DAVIS P",USAA LIFE INSURANCE COMPANY,38,SPT,07-04-17,20.04,165,06-12-46
"STIEVE, DAVIS P",USAA LIFE INSURANCE COMPANY,28,SPT,17-04-17,20.04,165,06-12-46
"STIEVE, DAVIS P",USAA LIFE INSURANCE COMPANY,26,SPT,19-04-17,20.04,165,06-12-46
"STIEVE, DAVIS P",USAA LIFE INSURANCE COMPANY,24,SPT,21-04-17,20.04,165,06-12-46
"STIEVE, DAVIS P",USAA LIFE INSURANCE COMPANY,24,SPT,21-04-17,20.04,165,06-12-46
"ROGERS, LESLIE",WPS TRIWEST FOR LIFE,110,SPT,25-01-17,30,190,05-04-46
"ROGERS, LESLIE",WPS TRIWEST FOR LIFE,84,SPT,20-02-17,30,190,05-04-46
"ROGERS, LESLIE",WPS TRIWEST FOR LIFE,77,SPT,27-02-17,30,190,05-04-46
"ROGERS, LESLIE",WPS TRIWEST FOR LIFE,75,SPT,01-03-17,30,190,05-04-46
"ROGERS, LESLIE",WPS TRIWEST FOR LIFE,70,SPT,06-03-17,30,190,05-04-46
"ROGERS, LESLIE",WPS TRIWEST FOR LIFE,61,SPT,15-03-17,30,190,05-04-46
"ROGERS, LESLIE",WPS TRIWEST FOR LIFE,56,SPT,20-03-17,30,190,05-04-46
"ROGERS, LESLIE",WPS TRIWEST FOR LIFE,47,SPT,29-03-17,30,175,05-04-46
"ROGERS, LESLIE",WPS TRIWEST FOR LIFE,42,SPT,03-04-17,30,275,05-04-46
,,,,,,,
,,,,,,,
,,,,,,,
,,,,,,,
,,,,,,,
,,,,,,,
,,,,,,,
,,,,,,,
,,,,,,,
,,,,,,,
,,,,,,,
,,,,,,,
,,,,,,,
,,,,,,,
,,,,,,,
,,,,,,,
,,,,,,,
,,,,,,,
,,,,,,,
,,,,,,,
,,,,,,,
,,,,,,,
,,,,,,,
,,,,,,,
,,,,,,,
,,,,,,,
,,,,,,,
,,,,,,,
,,,,,,,
,,,,,,,
,,,,,,,
,,,,,,,
,,,,,,,
,,,,,,,
,,,,,,,
,,,,,,,
,,,,,,,
,,,,,,,
,,,,,,,
,,,,,,,
,,,,,,,
,,,,,,,
,,,,,,,
,,,,,,,
,,,,,,,
,,,,,,,
,,,,,,,
,,,,,,,
,,,,,,,
,,,,,,,
,,,,,,,
,,,,,,,
,,,,,,,
,,,,,,,
,,,,,,,
,,,,,,,
,,,,,,,
,,,,,,,
,,,,,,,
,,,,,,,
,,,,,,,
,,,,,,,
,,,,,,,
,,,,,,,
,,,,,,,
,,,,,,,
,,,,,,,
,,,,,,,
,,,,,,,
,,,,,,,
,,,,,,,
,,,,,,,
,,,,,,,
,,,,,,,
,,,,,,,
,,,,,,,
,,,,,,,
,,,,,,,
,,,,,,,
,,,,,,,
,,,,,,,
,,,,,,,
,,,,,,,
,,,,,,,
,,,,,,,
,,,,,,,
,,,,,,,
,,,,,,,
,,,,,,,
,,,,,,,
,,,,,,,
,,,,,,,
,,,,,,,
,,,,,,,
,,,,,,,
,,,,,,,
,,,,,,,
,,,,,,,
,,,,,,,
,,,,,,,
,,,,,,,
,,,,,,,
,,,,,,,
,,,,,,,
,,,,,,,
,,,,,,,
,,,,,,,
,,,,,,,
,,,,,,,
,,,,,,,
,,,,,,,
,,,,,,,
,,,,,,,
,,,,,,,
,,,,,,,
,,,,,,,
,,,,,,,
,,,,,,,
,,,,,,,
,,,,,,,
,,,,,,,
,,,,,,,
,,,,,,,
,,,,,,,
,,,,,,,
,,,,,,,
,,,,,,,
,,,,,,,
,,,,,,,
,,,,,,,
,,,,,,,
,,,,,,,
,,,,,,,
,,,,,,,
,,,,,,,
,,,,,,,
,,,,,,,
,,,,,,,
,,,,,,,
,,,,,,,
,,,,,,,
,,,,,,,
,,,,,,,
,,,,,,,
,,,,,,,
,,,,,,,
,,,,,,,
,,,,,,,
,,,,,,,
,,,,,,,
,,,,,,,
,,,,,,,
,,,,,,,
,,,,,,,
,,,,,,,
,,,,,,,
,,,,,,,
,,,,,,,
,,,,,,,
,,,,,,,
,,,,,,,
,,,,,,,
,,,,,,,
,,,,,,,
,,,,,,,
,,,,,,,
,,,,,,,
,,,,,,,
,,,,,,,
,,,,,,,
,,,,,,,
,,,,,,,
,,,,,,,
,,,,,,,
,,,,,,,
,,,,,,,
,,,,,,,
,,,,,,,
,,,,,,,
,,,,,,,
,,,,,,,
,,,,,,,
,,,,,,,
,,,,,,,
,,,,,,,
,,,,,,,
,,,,,,,
,,,,,,,
,,,,,,,
,,,,,,,
,,,,,,,
,,,,,,,
,,,,,,,
,,,,,,,
,,,,,,,
,,,,,,,
,,,,,,,
,,,,,,,
,,,,,,,
,,,,,,,
,,,,,,,
,,,,,,,
,,,,,,,
,,,,,,,
,,,,,,,
,,,,,,,
,,,,,,,
,,,,,,,
,,,,,,,
,,,,,,,
,,,,,,,
,,,,,,,
,,,,,,,
,,,,,,,
,,,,,,,
,,,,,,,
,,,,,,,
,,,,,,,
,,,,,,,
,,,,,,,
,,,,,,,
,,,,,,,
,,,,,,,
,,,,,,,
,,,,,,,
,,,,,,,
,,,,,,,
,,,,,,,
,,,,,,,
,,,,,,,
,,,,,,,
,,,,,,,
,,,,,,,
,,,,,,,
,,,,,,,
,,,,,,,
,,,,,,,
,,,,,,,
,,,,,,,
,,,,,,,
,,,,,,,
,,,,,,,
,,,,,,,
,,,,,,,
,,,,,,,
,,,,,,,
,,,,,,,
,,,,,,,
,,,,,,,
,,,,,,,
,,,,,,,
,,,,,,,
,,,,,,,
,,,,,,,
,,,,,,,
,,,,,,,
,,,,,,,
,,,,,,,
,,,,,,,
,,,,,,,
,,,,,,,
,,,,,,,
,,,,,,,
,,,,,,,
,,,,,,,
,,,,,,,
,,,,,,,
,,,,,,,
,,,,,,,
,,,,,,,
,,,,,,,
,,,,,,,
,,,,,,,
,,,,,,,
,,,,,,,
,,,,,,,
,,,,,,,
,,,,,,,
,,,,,,,
,,,,,,,
,,,,,,,
,,,,,,,
,,,,,,,
,,,,,,,
,,,,,,,
,,,,,,,
,,,,,,,
,,,,,,,
,,,,,,,
,,,,,,,
,,,,,,,
,,,,,,,
,,,,,,,
,,,,,,,
,,,,,,,
,,,,,,,
,,,,,,,
,,,,,,,
,,,,,,,
,,,,,,,
,,,,,,,
,,,,,,,
,,,,,,,
,,,,,,,
,,,,,,,
,,,,,,,
,,,,,,,
,,,,,,,
,,,,,,,
,,,,,,,
,,,,,,,
,,,,,,,
,,,,,,,
,,,,,,,
,,,,,,,
,,,,,,,
,,,,,,,
,,,,,,,
,,,,,,,
,,,,,,,
,,,,,,,
,,,,,,,
,,,,,,,
,,,,,,,
,,,,,,,
,,,,,,,
,,,,,,,
,,,,,,,
,,,,,,,
,,,,,,,
,,,,,,,
,,,,,,,
,,,,,,,
,,,,,,,
,,,,,,,
,,,,,,,
,,,,,,,
,,,,,,,
,,,,,,,
,,,,,,,
,,,,,,,
,,,,,,,
,,,,,,,
,,,,,,,
,,,,,,,
,,,,,,,
,,,,,,,
,,,,,,,
,,,,,,,
,,,,,,,
,,,,,,,
,,,,,,,
,,,,,,,
,,,,,,,
,,,,,,,
,,,,,,,
,,,,,,,
,,,,,,,
,,,,,,,
,,,,,,,
,,,,,,,
,,,,,,,
,,,,,,,
,,,,,,,
,,,,,,,
,,,,,,,
,,,,,,,
,,,,,,,
,,,,,,,
,,,,,,,
,,,,,,,
,,,,,,,
,,,,,,,
,,,,,,,
,,,,,,,
,,,,,,,
,,,,,,,
,,,,,,,
,,,,,,,
,,,,,,,
,,,,,,,
,,,,,,,
,,,,,,,
,,,,,,,
,,,,,,,
,,,,,,,
,,,,,,,
,,,,,,,
,,,,,,,
,,,,,,,
,,,,,,,
,,,,,,,
,,,,,,,
,,,,,,,
,,,,,,,
,,,,,,,
,,,,,,,
,,,,,,,
,,,,,,,
,,,,,,,
,,,,,,,
,,,,,,,
,,,,,,,
,,,,,,,
,,,,,,,
,,,,,,,
,,,,,,,
,,,,,,,
,,,,,,,
,,,,,,,
,,,,,,,
,,,,,,,
,,,,,,,
,,,,,,,
,,,,,,,
,,,,,,,
,,,,,,,
,,,,,,,
,,,,,,,
,,,,,,,
,,,,,,,
,,,,,,,
,,,,,,,
,,,,,,,
,,,,,,,
,,,,,,,
,,,,,,,
,,,,,,,
,,,,,,,
,,,,,,,
,,,,,,,
,,,,,,,
,,,,,,,
,,,,,,,
,,,,,,,
,,,,,,,
,,,,,,,
,,,,,,,
,,,,,,,
,,,,,,,
,,,,,,,
,,,,,,,
,,,,,,,
,,,,,,,
,,,,,,,
,,,,,,,
,,,,,,,
,,,,,,,
,,,,,,,
,,,,,,,
,,,,,,,
,,,,,,,
,,,,,,,
,,,,,,,
,,,,,,,
,,,,,,,
,,,,,,,
,,,,,,,
,,,,,,,
,,,,,,,
,,,,,,,
,,,,,,,
,,,,,,,
,,,,,,,
,,,,,,,
,,,,,,,
,,,,,,,
,,,,,,,
,,,,,,,
,,,,,,,
,,,,,,,
,,,,,,,
,,,,,,,
,,,,,,,
,,,,,,,
,,,,,,,
,,,,,,,
,,,,,,,
,,,,,,,
,,,,,,,
,,,,,,,
,,,,,,,
,,,,,,,
,,,,,,,
,,,,,,,
,,,,,,,
,,,,,,,
,,,,,,,
,,,,,,,
,,,,,,,
,,,,,,,
,,,,,,,
,,,,,,,
,,,,,,,
,,,,,,,
,,,,,,,
,,,,,,,
,,,,,,,
,,,,,,,
,,,,,,,
,,,,,,,
,,,,,,,
,,,,,,,
,,,,,,,
,,,,,,,
,,,,,,,
,,,,,,,
,,,,,,,
,,,,,,,
,,,,,,,
,,,,,,,
,,,,,,,
,,,,,,,
,,,,,,,
,,,,,,,
,,,,,,,
,,,,,,,
,,,,,,,
,,,,,,,
,,,,,,,
,,,,,,,
,,,,,,,
,,,,,,,
,,,,,,,
,,,,,,,
,,,,,,,
,,,,,,,
,,,,,,,
,,,,,,,
,,,,,,,
,,,,,,,
,,,,,,,
,,,,,,,
,,,,,,,
,,,,,,,
,,,,,,,
,,,,,,,
,,,,,,,
,,,,,,,
,,,,,,,
,,,,,,,
,,,,,,,
,,,,,,,
,,,,,,,
,,,,,,,
,,,,,,,
,,,,,,,
,,,,,,,
,,,,,,,
,,,,,,,
,,,,,,,
,,,,,,,
,,,,,,,
,,,,,,,
,,,,,,,
,,,,,,,
,,,,,,,
,,,,,,,
,,,,,,,
,,,,,,,
,,,,,,,
,,,,,,,
,,,,,,,
,,,,,,,
,,,,,,,
,,,,,,,
,,,,,,,
,,,,,,,
,,,,,,,
,,,,,,,
,,,,,,,
,,,,,,,
,,,,,,,
,,,,,,,
,,,,,,,
,,,,,,,
,,,,,,,
,,,,,,,
,,,,,,,
,,,,,,,
,,,,,,,
,,,,,,,
,,,,,,,
,,,,,,,
,,,,,,,
,,,,,,,
,,,,,,,
,,,,,,,
,,,,,,,
,,,,,,,
,,,,,,,
,,,,,,,
,,,,,,,
,,,,,,,
,,,,,,,
,,,,,,,
,,,,,,,
,,,,,,,
,,,,,,,
,,,,,,,
,,,,,,,
,,,,,,,
,,,,,,,
,,,,,,,
,,,,,,,
,,,,,,,
,,,,,,,
,,,,,,,
,,,,,,,
,,,,,,,
,,,,,,,
,,,,,,,
,,,,,,,
,,,,,,,
,,,,,,,
,,,,,,,
,,,,,,,
,,,,,,,
,,,,,,,
,,,,,,,
,,,,,,,
,,,,,,,
,,,,,,,
,,,,,,,
,,,,,,,
,,,,,,,
,,,,,,,
,,,,,,,
,,,,,,,
,,,,,,,
,,,,,,,
,,,,,,,
,,,,,,,
,,,,,,,
,,,,,,,
,,,,,,,
,,,,,,,
,,,,,,,
,,,,,,,
,,,,,,,
,,,,,,,
,,,,,,,
,,,,,,,
,,,,,,,
,,,,,,,
,,,,,,,
,,,,,,,
,,,,,,,
,,,,,,,
,,,,,,,
,,,,,,,
,,,,,,,
,,,,,,,
,,,,,,,
,,,,,,,
,,,,,,,
,,,,,,,
,,,,,,,
,,,,,,,
,,,,,,,
,,,,,,,
,,,,,,,
,,,,,,,
,,,,,,,
,,,,,,,
,,,,,,,
,,,,,,,
,,,,,,,
,,,,,,,
,,,,,,,
,,,,,,,
,,,,,,,
,,,,,,,
,,,,,,,
,,,,,,,
,,,,,,,
,,,,,,,
,,,,,,,
,,,,,,,
,,,,,,,
,,,,,,,
,,,,,,,
,,,,,,,
,,,,,,,
,,,,,,,
,,,,,,,
,,,,,,,
,,,,,,,
,,,,,,,
,,,,,,,
,,,,,,,
,,,,,,,
,,,,,,,
,,,,,,,
,,,,,,,
,,,,,,,
,,,,,,,
,,,,,,,
,,,,,,,
,,,,,,,
,,,,,,,
,,,,,,,
,,,,,,,
,,,,,,,
,,,,,,,
,,,,,,,
,,,,,,,
,,,,,,,
,,,,,,,
,,,,,,,
,,,,,,,
,,,,,,,
,,,,,,,
,,,,,,,
,,,,,,,
,,,,,,,
,,,,,,,
,,,,,,,
,,,,,,,
,,,,,,,
,,,,,,,
,,,,,,,
,,,,,,,
,,,,,,,
,,,,,,,
,,,,,,,
,,,,,,,
